10000 10000
5847 8805
9596 8113
4290 6977
4767 7873
7882 5712
6448 1175
7567 5086
6968 3575
4976 5076
2655 2015
5146 6168
3324 2978
6574 6919
7553 8866
7446 211
6917 9587
2200 2344
4961 6766
4507 3507
8367 5620
2522 9733
1167 2356
3560 3812
3948 4271
5123 4834
399 6569
683 9186
7794 946
7589 6233
7608 2086
3803 7954
5435 2658
8710 5317
2758 824
3615 4664
2501 8517
8690 9941
1801 5744
2628 1006
9216 6246
6838 3663
1300 6532
890 8900
7923 3636
7206 8219
8223 9597
4919 7898
2374 1556
4472 2020
1685 247
4387 4776
681 9755
2231 827
5846 5347
2011 9751
8956 5301
2610 3363
8774 2616
1823 5333
1829 5953
9978 4021
6924 4238
9396 7972
4909 178
1527 5597
9877 6498
6162 9563
7331 415
8100 7420
862 1141
1670 2820
4104 659
1262 117
3533 4269
3329 8205
8545 5151
9561 5328
4073 5890
1319 263
2200 2003
3787 6969
1693 7010
994 4442
4395 3929
1423 834
2778 7374
2589 4383
9276 1130
9027 5117
7426 2443
745 4164
1855 838
4250 9907
2861 401
1339 9324
9855 1169
2571 7600
5399 3487
3035 60
4729 4384
6432 9956
2048 4261
5079 8303
8304 640
5080 99
2363 9593
3198 1251
4759 3280
5286 7766
2080 2355
8358 1098
7162 6930
3840 5032
2090 3601
6390 154
5942 9918
3072 9754
265 756
9404 909
4236 1007
7702 5648
8626 1376
841 2737
1170 2323
3012 3297
586 5072
5072 8457
929 5359
3729 123
5694 9296
4491 6458
6552 4857
391 205
6318 7313
2390 4383
9336 861
9813 123
8253 7720
9313 3286
2518 5704
5181 8669
5603 8911
2434 6737
8877 8720
247 8736
7435 8483
3489 4870
2601 7578
7612 2900
229 3125
1882 8912
2316 9490
7276 7964
9958 7289
6351 27
1149 743
9720 1057
1651 4666
2420 5435
7940 3325
8809 8352
9673 7811
8865 5446
1039 2649
296 7207
2088 1655
6755 8837
1104 4072
7827 5852
9747 251
9643 1479
1389 8184
3662 2022
8850 7399
797 974
9807 6141
6704 8689
7600 8200
1586 704
804 5918
5250 3039
9278 2337
6903 9896
77 1365
3843 7618
3694 2741
668 3090
9552 2819
4215 5363
5688 3679
1590 3939
9847 9258
4163 1086
3705 6538
3645 4558
46 9424
2851 6387
3086 569
478 3056
1129 483
5108 3798
6238 5168
234 8309
93 5631
8762 3728
5181 8809
7078 144
7106 4346
3291 1884
8842 1217
3593 6152
599 4793
3650 1019
9330 6024
9425 677
1534 1192
6046 2081
7418 1141
6335 903
4987 1654
8256 7541
1482 1295
6102 4031
921 3734
3600 741
9468 9364
2703 484
6278 1535
2840 4015
2193 9878
3944 7584
3314 5613
1255 9625
4572 1305
9056 8176
5428 3806
2128 539
8805 6679
5757 5272
8773 9333
6473 8928
9336 6845
1575 556
115 5979
8557 1304
8691 9275
8026 9992
479 985
9978 2441
635 2279
3976 3289
751 8432
1683 9769
6968 2010
4164 2161
125 945
6239 4421
564 1026
3528 759
4358 7877
2504 8285
8672 95
6688 6581
716 6902
557 9846
4143 9414
7692 1865
3348 387
96 5591
3081 2000
467 8228
888 3488
9097 6813
2570 8012
8443 5182
7703 6564
2098 4743
4816 2489
433 192
8160 842
4280 6170
3696 6797
599 6456
987 6257
7952 6142
5394 6705
4833 8392
4496 4236
5888 9007
8672 5411
4455 2072
2526 9266
6626 5469
5403 2578
1862 7823
8933 2638
7077 7356
6262 5557
1343 3774
3420 3904
8779 8405
2217 6613
8454 7270
9756 5579
4859 1683
6720 9566
725 6605
8723 8325
2785 8567
8777 7986
758 1709
1138 7242
2281 1588
6105 7254
2364 228
7919 1849
2440 1604
7464 947
3547 6405
228 7798
1667 8834
160 2791
2972 9189
9870 2902
1910 8221
8882 5073
9002 8239
3791 7494
2334 1435
3090 488
1592 6385
4364 6500
1744 9348
2342 437
3352 4269
8688 756
3840 7762
5274 1668
9637 6089
8759 1117
5514 6392
2495 8935
1194 2431
7892 3049
5388 8936
5447 7059
744 8045
5691 8313
1370 4715
6427 81
2133 9030
7128 2207
1849 9086
6709 4286
2951 1568
4630 9602
1444 1119
1990 6171
1261 68
3657 6989
8699 4980
8705 3038
871 9633
5749 3936
639 5172
2126 847
2408 7481
1220 2253
5271 8427
6409 9165
8939 5746
8708 1180
3261 5450
9809 4886
5852 8327
518 4744
6930 3765
3993 3234
7434 2500
7600 9600
1814 3188
7449 9673
3260 7181
1388 1655
1089 5795
1918 4632
1881 3976
8663 1028
9165 1282
1222 9153
8174 5774
1587 1331
2153 37
5269 1191
764 5999
758 6658
6264 4549
467 7766
9255 8779
8968 7989
6464 669
3612 4985
4312 8537
8617 3906
3691 3822
2639 1777
9692 6211
1960 2422
1081 6316
2095 1957
3907 2568
9485 8814
5532 5582
2084 7837
8754 922
48 9487
427 4146
7467 486
8097 5869
4672 7998
2624 3286
2226 9841
2893 7598
5950 6040
5066 6736
1325 6548
9239 9881
1727 7660
3035 8696
8805 5799
8372 6418
4397 3964
6651 7864
2291 8440
5051 9341
2150 8304
2547 8739
2057 6392
4058 4822
4315 2563
2867 7675
3721 251
9089 2538
4642 7140
2365 6841
9964 4604
1285 2235
9301 9894
8983 8474
6956 9351
9087 2016
49 4944
8525 9788
8731 8749
4955 9699
9800 5789
3421 1589
1802 4324
2345 2065
4608 1853
8985 6283
498 404
3391 2270
7426 2563
3144 4237
1471 7995
6836 3886
9355 1461
4725 3817
2751 7433
3911 3741
6062 799
4767 9780
1992 1525
4454 4152
4448 448
8536 1062
2639 3622
9911 2882
8954 684
5030 8427
7602 2347
1491 1872
267 5448
9956 9827
6383 7236
7510 5389
4275 8865
2354 3026
8011 6119
817 4182
6201 7765
8529 1297
9756 652
1560 1823
7751 2552
5176 3163
1022 192
8964 4285
3897 2385
3202 6289
5794 1686
3361 4474
6529 843
9037 6486
9178 8337
8929 4468
3893 5460
3885 7652
5279 2156
2840 2078
2431 1585
5991 8341
7468 6979
4494 205
1645 8408
8086 6059
1680 3047
96 3292
9663 2708
5081 7561
2111 9917
3471 4249
7995 309
9699 6871
2706 4767
9279 2486
2524 6317
2826 4402
2738 729
4346 9032
5823 6469
5641 4233
5873 2318
7370 1067
1428 5558
5390 2497
97 1329
6755 9693
2659 9744
7404 707
3899 6621
1894 9887
2309 406
138 7865
3770 7133
7503 935
7959 175
6002 7524
269 7540
3096 6720
7098 5607
9507 8089
5417 7318
5508 6664
4021 780
6912 2527
788 1821
8261 9745
9746 2626
9790 5794
2027 1686
2278 241
8797 9951
5018 7651
4060 4417
4514 7795
2856 1424
1617 1670
4253 3060
1322 2419
201 2786
1702 5171
3668 1513
4211 9989
2011 6874
6591 1334
4572 315
2470 9903
8297 9645
408 2415
3111 5693
1583 4298
9638 9464
6079 3890
2854 771
8510 6677
3000 5786
8198 8631
130 39
2137 2706
8263 6629
1685 9868
9607 5989
8440 872
2867 2689
8997 7390
5044 5616
5287 8703
6524 8537
1894 8708
7532 1403
2408 6087
6200 2156
233 2372
3368 480
7150 2449
1344 6029
6391 8396
9859 412
3267 5492
8131 403
6089 4234
8620 4401
403 2105
5650 5337
2701 7860
200 7411
4911 1455
7266 9391
743 4706
2173 5724
923 2393
6078 1560
9438 4462
6424 8488
9360 5803
8930 3690
3323 7915
9896 1001
8267 2529
4528 6146
6781 1931
1136 1684
3404 519
5647 7341
5608 7255
5401 6323
3384 3714
6503 4831
1425 3387
7694 2161
7383 774
9318 6880
2515 1175
526 8640
7398 5997
5422 7898
2590 9280
5150 9686
9062 3479
5 3740
2578 6653
276 9868
5484 3444
7572 2570
5897 9338
5965 9342
3487 764
9800 8347
122 2840
536 3742
8413 4391
9812 7113
455 8811
952 4545
1318 4693
2686 8677
4048 8379
1318 7152
1967 1080
4525 6625
2733 1492
5293 9449
3153 6901
97 7124
8 2278
7244 7003
183 9287
2859 5433
8112 8277
9016 9197
6164 2683
784 7360
5352 5689
1415 8775
5835 8581
746 8427
7526 5104
870 632
7348 634
9144 7362
7908 9399
804 623
2605 4724
4473 2384
706 3205
948 9777
2311 8433
2309 116
931 688
6287 5769
8341 3763
1604 2834
2203 8742
720 9780
833 4178
2324 8335
2503 197
9735 2769
1063 6134
8248 2616
8021 9667
1190 3927
2264 4317
5555 2395
9864 487
8951 670
71 2443
1681 1516
4405 1518
5699 5284
6623 1141
4239 8897
1577 8439
2620 346
268 8645
6990 359
7248 7048
4245 789
7854 5177
1428 4763
6943 8279
3557 286
4329 1828
7547 6802
8108 321
3960 7042
1527 9291
1472 8561
321 3974
3645 1762
421 4314
2725 502
4684 811
2985 5476
865 13
3887 141
530 7798
4322 7392
8211 3286
6680 603
2999 6422
7557 8148
609 1629
1519 9191
4103 4425
9825 9697
5513 2124
6691 4748
5105 4196
346 7371
6875 7519
7804 9337
4694 3326
1063 3501
2604 3418
8546 5489
5103 565
3076 8739
2724 9779
6627 5003
164 6264
8240 7262
561 5219
6578 8227
6854 3755
2096 9060
5250 553
4499 2743
5382 7991
3658 1629
1116 2983
1824 842
3387 2343
5467 2151
2217 595
8262 8101
384 3740
1570 4611
6068 1975
2057 8417
1219 9353
9603 165
3614 8898
44 4174
5944 7159
7589 6296
2220 6901
1641 3936
1460 9123
2516 5992
2759 9559
1567 5708
9586 1643
863 7862
1867 2161
3711 2383
1361 1397
4299 9048
3384 4803
6959 1496
1604 584
1166 7990
1572 9789
5111 2697
2033 7121
4837 6605
3511 150
903 7402
1699 8079
4463 1872
3277 2473
9646 5077
3384 840
8752 4499
4232 4674
1444 3227
4995 7490
5535 8702
1387 3190
3025 4638
6299 7562
5880 9072
4656 1704
9844 5109
5290 7232
6315 8537
6643 6533
8877 9339
9727 248
7290 7886
6853 6313
4451 5776
1693 5947
7439 1929
4906 5576
927 6854
1786 517
1924 9975
7403 6022
3951 4181
4640 1061
425 185
9333 7663
7940 360
8543 1663
8146 1011
5736 5520
612 2367
3609 109
3686 4367
6392 2347
2505 2635
3429 1066
7617 9099
3983 4599
5232 6788
365 7606
1938 6183
5274 6110
1515 5686
4320 5973
6846 7176
856 6718
9312 6879
5600 6367
9452 9752
1134 5832
4503 9315
6341 3137
2135 6036
421 3092
9376 217
488 9915
527 9100
1114 9051
6266 7979
4489 7377
7287 6727
1518 4027
845 5546
1625 2730
9976 7788
5444 822
6273 4887
4737 8435
8557 3577
997 1315
4053 9643
5977 2653
6998 5776
7295 7820
3609 560
8354 7851
662 7670
6977 1263
4724 6950
1357 2213
564 2450
3889 7966
224 2463
5778 1975
4493 6020
1014 4318
8920 5363
4138 5491
2225 9019
8046 3451
5873 3565
5396 2683
6529 7821
8586 9171
7982 332
8036 6680
7656 8148
7597 5910
4138 1971
8495 4854
3151 6395
6801 8541
7314 25
5216 4181
4374 8677
8626 6672
4600 5017
9735 6009
7282 8198
416 7118
5793 7284
613 3003
4986 6328
417 4696
3320 2298
9329 3175
8873 9239
8477 7350
1786 8629
1334 5020
8287 2261
7009 2370
551 830
4594 4206
5376 1320
333 5240
5319 8981
9912 6903
1891 7175
8293 6828
6755 846
9359 1890
4996 5056
8883 1043
1335 6830
2017 7615
3331 2629
3267 9593
9239 3730
8910 2498
1634 3978
9990 2298
2935 25
1398 9107
3307 2377
4352 3433
8177 3973
4306 959
4296 8622
2955 2380
2483 2638
1436 2118
1705 4763
2961 2621
4318 9870
3490 3883
4178 3397
6533 1210
1465 9062
3479 1960
4234 4053
3819 871
9467 2088
66 9191
8542 680
8348 5511
9893 3643
3933 9225
1211 8992
2675 4359
1430 4986
3783 7443
9495 6609
898 5667
8484 933
3666 44
5273 6900
174 6894
26 6254
9942 5937
3404 6248
9278 7054
213 862
8492 8481
8016 3308
7248 173
965 2702
2644 2801
9673 3846
7812 9674
9714 7294
6880 9561
7086 3279
5152 1718
2933 9889
807 1093
4619 3540
2682 2248
9306 4895
3203 4437
2816 5510
8081 5130
4229 6225
338 2894
1328 6843
7492 8009
8394 7689
2681 8951
8707 8124
1513 9720
3251 1527
3548 636
7988 5045
7592 4334
2254 1461
9095 7726
4675 3832
2061 147
1741 6653
6233 1201
2212 3306
3946 4071
1444 6781
804 8268
9230 1267
8578 2204
9726 4826
9854 2781
7677 1986
2991 5175
7816 1402
4610 2291
5489 3544
5405 9682
6005 200
8176 1746
2909 745
2205 3725
2232 8819
89 2578
585 5118
8387 168
3085 5792
1588 128
688 7093
7192 6331
9504 7908
7292 7084
9986 5887
4280 8510
3204 971
4816 1865
1299 4337
8325 4226
1646 8708
7857 3024
3067 5283
9539 8774
3272 1090
3559 286
1316 9060
6762 1826
7279 4828
4861 5441
8495 837
4183 2176
7044 9885
6048 7743
9167 6297
9387 8062
5950 6470
2228 4063
7035 6108
8891 109
3911 6967
9679 6942
4993 8089
6526 4309
7547 2826
9676 171
1406 2641
8866 2079
6604 5752
2569 571
55 7579
7959 9113
4465 8945
4265 7926
147 6207
7090 8726
3378 2025
8499 1560
7214 5882
5100 8891
3165 5989
4273 2929
1944 1517
336 387
1252 5266
6322 2085
1412 7869
8704 8188
1885 9167
5209 157
6730 165
3041 7800
961 8286
8747 1684
9077 7343
2123 4844
4509 7991
293 1451
4470 6415
4394 2356
8500 245
52 102
2447 5593
6239 5790
7659 1446
2635 2381
5640 4069
9439 5739
3468 1823
3793 5403
1741 7186
5491 3905
100 2086
6784 2946
638 560
7863 1243
6149 9319
4983 5749
1806 7909
4508 9351
452 9055
2600 6764
8565 5513
4469 5111
1387 2132
1642 4116
9198 554
6893 9201
3208 491
5737 1773
2170 376
8592 8927
7373 1776
1442 698
4363 9018
2942 464
8142 9314
1959 3253
2793 5287
2875 2645
8886 1061
7713 7000
3808 9630
9041 788
3555 3934
5481 1764
9152 9327
5452 9753
5637 4794
7165 7166
8892 783
1997 5952
9523 199
6049 637
1212 8456
7656 7532
4886 2809
2060 2078
7996 7031
2902 3955
7307 9335
7287 8368
7274 4076
2804 4991
5317 2363
4529 680
7003 7646
8690 8495
8138 6502
9310 2718
9542 1588
5605 3124
7521 6698
4915 5150
9784 7949
3237 2613
2618 429
4300 2040
9519 5561
7104 2843
6 9133
6086 2848
367 1709
2757 3238
6746 9206
6357 2143
3568 9987
9001 2470
8609 7166
5615 5328
7261 2471
5830 3138
4087 7146
9839 2084
7238 684
4759 5669
5278 9334
6259 287
9024 4885
493 7788
4557 6113
3679 9336
4672 2156
3917 9
1948 6542
3672 2269
1347 6031
1952 3299
8298 7924
3561 5581
1849 622
8737 8291
391 623
6881 8460
7541 2286
9219 1145
7226 141
5171 802
7071 6409
216 2645
556 6737
3237 4476
4099 8955
9435 3327
2746 164
6370 2922
3135 2519
3031 6927
9352 1935
4424 7839
1624 528
4510 6469
2393 2099
4906 820
582 4256
6019 4211
1127 7553
8639 2693
4867 1380
7136 7614
6913 8082
9969 5043
8176 5022
9889 7489
7080 1168
5535 7744
9808 498
5735 9385
4146 5146
6059 2518
5083 8714
470 2698
9575 1140
541 9281
3069 9410
2167 3016
5030 3781
1774 8960
9652 2749
5351 8351
3249 3032
5966 8040
693 750
517 5212
8557 7564
1983 8497
8824 8767
968 8562
6563 308
5320 1607
9255 7885
5431 5014
2241 1719
1075 9466
5843 7354
3711 3747
3978 7360
4414 9134
8479 2410
4737 7895
2610 2751
670 8508
4579 438
1474 884
6435 1911
8455 351
4043 3149
3321 4319
138 4238
4565 7432
7861 926
3060 5908
1835 6336
1447 4747
199 2575
6371 6609
5273 6460
4751 7311
9030 5721
1435 6743
9983 8998
8371 2274
880 281
1556 3036
7834 3267
3583 4275
6883 5361
9740 8459
8603 5568
2272 9142
8483 1541
578 1922
266 5099
4266 7443
6152 5342
9628 1843
2750 1432
2596 4679
6045 5866
8577 2964
8119 1390
6871 1953
2451 2986
1119 1951
5284 7480
9506 2663
3260 9411
1847 4098
2221 1892
9433 3055
2753 8766
2012 8816
8426 6967
6065 5414
1420 5224
6616 5599
7466 3543
7813 8508
1406 403
8358 9400
4861 9615
5941 662
8363 6723
5689 3098
4986 3487
6801 6075
4009 9729
9412 5527
987 5705
3890 5640
1716 2411
1696 3829
9867 7013
4434 6988
1725 5714
873 5214
1231 7406
6239 108
9382 8283
3105 3041
1626 579
8637 8975
5160 5167
5371 1231
8087 5639
3057 9827
4477 7451
8097 239
227 4209
7702 2055
5910 2992
1871 3498
272 1405
9707 5744
3046 404
1654 4975
7187 57
6307 4772
1510 9055
4458 2113
1063 9881
7955 226
79 175
1124 9876
5432 8196
4920 6151
371 7813
49 2515
9849 4516
3055 90
8916 8134
4385 6877
399 2857
8587 8097
2267 1338
569 4051
6003 1127
7619 7930
4498 848
9873 6412
1588 1619
6337 2260
6042 1721
663 5762
8738 1995
404 1747
3847 2488
906 3650
9204 571
1662 5823
8399 7929
4783 7087
5443 9960
8487 9045
3774 6775
8927 5984
8477 6713
1304 3908
2229 3299
9991 5357
3236 9753
513 5394
8598 3220
1848 2662
3532 2679
1892 901
9242 9010
277 957
1136 4854
1639 1290
2316 5689
6663 1655
3405 1901
4886 3473
8299 4333
9804 3118
549 6055
9551 719
5691 9888
563 2674
6990 5476
9204 6827
9732 6269
1250 9555
8512 1095
8332 1857
1826 2369
2481 649
1819 5190
1250 3874
1987 877
5660 557
9871 8749
2789 6258
8781 2485
2501 2141
5169 3147
2007 3177
4869 7364
1855 2011
525 7396
6158 2323
5145 326
9572 7119
3918 4173
9205 3040
5559 4956
4144 576
9608 9107
3980 8324
4356 2507
3059 3679
111 7765
7812 72
5254 1453
8339 541
8269 2053
8420 9271
9641 9039
6616 447
6352 7098
7735 514
5182 97
8399 4081
1850 7985
443 3772
8968 186
6968 2369
5839 983
1540 5407
4317 3665
2439 895
7594 5713
295 5365
1051 2261
6086 5876
2216 7333
463 848
4320 8566
1522 7832
667 1358
5211 8307
4769 25
7209 4681
7289 5116
8286 3158
5556 3400
2451 4683
3563 2450
4366 1046
709 2480
4246 6643
2126 7830
5654 7443
2037 4129
3168 1051
9349 7556
420 5408
9511 2498
7793 9554
4149 9291
2251 3382
3601 1562
9390 441
4919 382
7858 65
7249 8152
79 1846
9306 2196
8979 8705
7461 6524
6786 9892
399 5561
2845 9099
1010 6811
982 81
2555 523
5042 1142
382 9487
8064 4703
2392 1054
2634 5022
438 2004
1898 8580
36 3624
3519 9124
856 2525
4079 4666
1 3942
4975 6716
9914 6445
2833 6288
627 9253
8445 4814
658 5550
9843 7095
5925 5594
7967 758
4571 2734
6270 2566
4276 3194
1457 6500
4247 9341
5008 8150
6323 1922
8401 4444
2471 848
3193 5126
7397 4433
6113 1623
4788 9632
1580 5240
1910 3017
537 960
5082 3308
788 4754
5667 7106
690 9176
3560 1219
6093 7279
6749 2775
6588 706
529 971
7398 3243
6650 3975
9112 1032
8734 2046
1158 8155
3187 1925
1663 9860
234 9895
8532 4722
2599 3912
985 6040
4788 5609
9341 5917
2343 3195
8711 7
465 968
1810 4216
8616 2606
5914 4121
1287 5677
7479 1782
4580 4340
4537 2235
2819 5703
1909 7278
9913 7283
1216 2060
6756 6997
552 7624
8921 5000
283 161
5325 7565
6578 8548
9976 176
6862 6978
8535 1080
471 7300
7361 9103
8065 6171
2301 7139
1583 8620
8898 6013
5964 2749
1118 3072
6552 7353
8747 2356
2527 5066
2687 7923
5649 8136
2163 4419
2477 1772
4934 5846
6623 1738
2019 174
252 3071
9904 4885
6476 1879
2824 4012
1687 4162
2364 8562
2419 2519
7765 9015
3005 858
2957 7938
5685 106
7519 8192
7919 1214
3308 3534
5143 7362
1024 2169
981 4876
5220 8355
6529 2644
8645 313
2249 2899
580 5859
9793 7467
3903 9387
2218 2519
2145 7778
9910 5748
374 6703
2987 1329
8241 9209
1798 595
7761 6519
5842 6844
6209 2934
8249 668
5295 6299
3385 7177
8688 2698
5803 699
9842 5766
2544 5579
4626 3578
2573 3278
1502 7511
2121 8684
8221 9439
7845 2021
7598 8082
2299 7542
5359 8278
3625 2632
928 1244
1008 4683
2439 1712
8600 417
3636 4498
6535 8877
9303 8515
6178 606
6433 6066
2707 5927
1801 3992
1099 7457
7888 8528
9689 3314
3527 2779
5676 2144
143 6770
8438 1953
416 2574
2897 1749
863 8117
5846 1798
6218 6197
7020 4270
8838 2934
1230 714
4827 9675
7633 1342
6893 7418
7524 6585
4399 3564
1208 2506
6755 9623
8098 1603
9573 6458
8894 9517
6313 5976
5078 9805
2706 1736
9652 8805
2677 3804
8821 2318
7052 6498
1774 3348
399 2200
2723 3090
4496 6499
8053 8416
1030 1664
2588 1258
4157 508
7814 7171
5692 5314
703 6138
1703 7284
2417 140
7285 6716
9549 5018
5525 1507
7179 1772
5101 7137
4079 3573
3171 8950
9532 7033
5215 7112
4685 1853
1248 3374
7442 3391
2223 8493
9368 4582
1745 8193
1916 3898
2288 4830
9361 9174
124 7719
224 141
2446 9919
7791 395
8142 7022
8293 2446
8006 838
3501 405
9062 2438
8281 1015
7273 223
4057 7767
4200 5782
8541 2631
8221 9193
8839 155
6331 4118
1076 3375
2028 7816
7468 3691
1659 5554
9703 5670
4547 65
1091 4473
343 3822
7396 2581
2500 337
6235 6103
500 1180
8171 283
7604 7671
5975 7712
5225 3959
927 6091
3726 453
1357 4141
4336 3660
2923 1881
1966 8835
4152 9393
6203 5148
107 4784
471 3787
3702 542
445 1483
3246 3263
9406 1550
6170 1069
5181 2004
1995 9831
1100 878
2347 5738
2391 6418
3672 5951
3839 7378
4019 2117
587 2776
8292 1249
202 3413
4433 883
3899 4219
7231 442
4577 4471
2232 1067
5713 6211
7517 3070
4158 1722
3502 5785
4871 7646
3159 9681
5727 2742
9437 9070
269 4572
3786 8063
5461 1639
3813 1934
6327 2259
1846 6549
4982 9658
3304 9088
860 8813
1760 1205
2124 2435
9757 2130
888 9894
848 1798
4100 9865
1022 1059
7626 4366
3283 9938
6464 1544
9098 4583
487 6141
7066 1542
5 3758
7011 1527
5798 778
7242 6566
6206 4191
688 8702
2386 2754
2762 7958
183 1570
5101 6668
5099 7496
664 6818
7107 3025
4950 263
3045 3439
2196 9543
2711 237
80 9157
2999 1809
275 1176
1292 6679
6049 7203
9677 6252
3182 746
1649 4728
1570 2258
7958 3568
1904 40
8806 6634
3444 3717
5191 4930
9259 1600
5378 445
3880 2228
6071 3116
964 3987
4254 3011
2997 2652
3137 7450
7411 2441
5384 5172
6039 3036
2613 2623
5700 3403
1121 5275
1290 3001
3719 5662
4072 5687
6736 855
9955 9835
5918 4641
2133 5344
8412 1419
7799 606
8742 6614
1777 2252
7494 2782
5985 1986
7230 1740
7307 2100
1133 6972
2609 3948
3787 9419
3475 2246
7495 291
4488 4387
6276 7833
8701 8054
6303 9718
6893 5475
2532 1046
6402 777
7761 5326
763 2637
1115 6737
238 1017
9600 4868
3392 1237
621 8720
867 341
2049 8232
8303 8834
9249 108
2772 1854
6909 3614
1359 6674
8915 8483
9660 1082
723 5691
5434 132
9171 2164
9029 7508
6499 9996
9808 1788
6740 4822
6833 1498
9540 976
6865 6674
7005 7618
1316 3406
1200 3929
2454 9699
9595 6468
5415 3158
4595 1887
1401 1855
830 5774
9239 7549
8255 7436
5432 9673
8567 6022
9588 4175
2794 5473
8582 4715
4545 3555
1251 6304
9358 6608
538 7823
1877 5747
2396 3926
9576 4272
238 1271
6659 7895
220 6810
506 1228
2945 2901
9824 8277
1764 3755
6618 1028
8197 5844
2467 7078
6057 8300
2481 7179
6146 3165
4199 8566
3746 7233
2316 1095
3697 5154
7292 9287
6814 661
3646 9460
5202 9400
9830 7358
3627 2551
9500 9297
3399 5189
4204 548
239 9608
6415 1825
4455 2854
3995 5910
7475 1087
5910 2956
2635 8059
8960 2214
418 4166
8978 8107
5236 6568
7969 2232
2623 7034
1912 9824
6515 2262
6021 6133
6556 4606
3458 6316
816 5632
5367 267
4308 5961
5438 8342
2548 615
727 443
7923 1011
9789 8267
2415 7887
1993 6138
2760 8908
774 7272
1746 1584
7012 1969
1562 4597
657 9842
6918 9717
9717 2861
8767 6485
5196 2559
4643 9536
8953 6479
6 7350
3049 6154
9050 148
2486 8285
9071 5734
4990 8658
3468 8217
1875 2160
62 7814
436 5644
7392 7708
1275 884
6396 1454
3160 7101
6465 1005
3903 1562
1142 6262
477 3105
2094 6223
7328 2153
7612 3070
7144 8887
3464 3308
8137 5081
7890 4952
5506 7618
4279 7214
7107 1335
3763 7657
9290 281
5734 8358
3135 8436
1289 524
241 5575
3138 1225
2768 4422
2694 5102
1804 2445
2623 1310
6158 5077
7438 5331
9493 4779
1491 9154
2644 8879
5690 4976
2763 5531
4808 4404
9810 5813
6967 1535
4189 9606
1183 9113
3420 6044
7958 1246
2754 4476
2008 7225
6361 3532
3818 736
772 8497
347 7760
3382 5220
3564 8522
6433 1402
3458 3566
7152 6676
186 1463
1689 9124
7100 4392
5661 9474
4227 2309
4691 9710
2860 3828
308 2262
8700 9877
1400 2490
9575 7809
7648 798
1487 3103
7909 4336
8858 8045
3986 9979
3975 5564
5789 8715
7474 7644
9772 3137
4422 6027
2597 7993
5522 2744
4086 4587
2015 8396
2647 1135
9777 156
9372 2021
2892 2152
5712 3123
7289 583
1966 8944
7928 4327
3217 7009
2456 4463
559 4193
9718 2600
9601 9831
7747 6140
4919 866
4713 6093
7770 1160
8958 6201
5313 2336
6698 4332
5880 1676
742 2774
1118 2764
9893 5167
5453 3294
5143 6521
6736 1306
9548 853
816 5310
4694 6728
95 4661
1538 5231
937 4413
5305 5120
2296 8392
5617 2467
8135 6259
4777 1218
8760 2134
5974 2429
426 1980
6039 1568
8773 4644
7135 7609
569 6870
6164 7764
2502 1034
2724 2234
3836 2325
6104 2170
5511 5573
3387 774
5875 1024
6204 5825
5046 952
3298 1847
8046 2593
7519 2366
1048 3110
3961 8316
5171 7609
2133 1353
2325 1018
7828 454
1836 6986
1587 8686
215 6303
9230 4236
22 5242
2629 5357
8495 5688
8321 1623
9139 4247
9368 4986
5232 1578
5295 8119
1848 205
1680 1838
8114 2684
9133 172
6751 2834
3859 8244
7264 3438
1698 925
2406 7771
140 813
7691 3247
4684 9653
9279 6708
8777 4349
8597 1958
4667 1856
9807 7996
6830 5180
4022 7306
2708 8595
2383 2198
2432 3269
346 9642
4832 6914
2381 8121
1162 2042
4049 9269
8123 7991
7724 2097
2043 382
8479 6595
2165 8530
7471 3900
8710 2345
1497 7658
5652 5395
8978 6990
8689 9496
5982 778
3696 6898
4674 8157
8295 2203
123 3666
2629 87
8480 4885
3942 6325
581 4872
7828 4066
2482 3190
8625 5919
3124 8022
6083 1637
6002 7009
4191 3206
3522 8679
9913 8037
1533 2095
1546 9464
7456 5086
7683 156
6469 7434
2817 1499
3441 2143
3793 4090
6159 4561
2518 7958
6013 1412
5913 2544
2134 4409
7905 8453
7920 4985
5059 1651
7190 2038
5563 841
7032 912
2092 5503
1362 4454
2724 5766
2890 8030
7684 1153
1806 6295
3742 2132
5646 2348
5311 1340
5269 9228
672 911
4190 4536
2808 1525
1253 5212
9636 1127
8827 7265
153 8663
9278 8546
4056 6769
8665 5358
916 9200
4711 6254
289 2659
3102 8552
2701 2641
9753 1091
739 5724
5718 3675
2317 2834
3618 1191
458 3961
9490 1769
7185 9100
2787 4662
149 993
2260 8455
393 174
3842 8495
4790 1531
6756 4782
298 2456
6377 3046
3763 5186
5951 7484
3773 7683
629 4672
6600 5224
7427 784
2301 439
3672 2874
1746 2704
9076 5921
2348 1875
4616 1122
53 9586
6122 1768
1343 2024
7917 4956
7272 1067
1169 9777
1150 638
9542 5471
2340 2411
2183 2174
2869 3231
5701 8374
5928 9477
1809 2324
2965 103
4431 2895
7992 2674
8007 8972
99 6746
6365 4575
8969 1214
483 5875
6680 429
2366 8524
5526 794
598 2538
7280 7724
3554 1473
8254 2200
5988 967
523 6515
9904 7694
3460 8258
2051 131
1855 8949
7393 2005
1198 2324
1375 9834
852 2712
323 1118
2487 6189
3417 4446
487 3862
2199 2068
7853 2306
5507 6659
8791 766
4099 8982
3188 3275
9030 4948
2923 657
1425 5239
3713 564
1388 9981
3482 70
3854 1198
351 493
3142 4736
7393 214
9212 711
9565 4538
1560 5712
2561 1136
2065 8112
4078 9044
1480 1865
638 822
9798 4621
8135 6486
898 5078
7105 4783
4312 3525
261 6145
647 8985
4999 579
5226 5842
101 4184
6473 7638
4880 8370
6992 4324
2138 1893
8609 3592
592 9789
1366 5615
3499 8418
5881 923
8050 523
7799 3512
4162 3361
2402 1504
3024 5685
1783 9949
814 2613
7104 8989
8124 7371
5130 3674
785 1462
4153 8810
9402 365
3130 1572
9011 2465
2377 2053
6436 6195
9637 8930
6941 3974
4945 5343
7749 4885
2412 6175
463 8968
1443 2284
4622 2739
870 5642
9147 3472
4680 4935
244 2287
9610 2662
5751 810
2027 8972
7872 2094
8825 2666
8127 4822
411 7820
3709 5530
1554 5553
5217 5705
4780 8781
8798 3235
587 6523
9919 8650
5126 3655
4549 2217
6239 5243
9440 8950
9301 3688
4525 8212
6346 9959
1887 8828
1000 2224
9233 3597
3935 5931
5883 8593
3538 4006
7795 7314
7107 3270
5973 9340
3260 2625
2006 3749
5967 6956
3206 5691
4272 2480
4052 8701
9634 3938
2566 3917
4511 7811
5369 292
2429 8581
7910 6711
8669 9456
2550 3128
2469 5188
7591 127
6912 1007
559 4635
2660 1633
352 4851
9845 7597
669 7410
8104 2851
6380 9635
7114 3645
5260 5449
4658 4359
6921 6915
9493 2594
7790 7453
3465 6698
2459 1674
9515 6695
247 5089
6629 2689
3287 1862
8986 4488
4079 7882
7620 4530
6952 3301
6736 9222
4771 1363
1928 6472
7645 2141
8162 694
964 5066
2263 4579
7369 3494
7334 3554
3830 9489
8473 8662
4594 4394
265 1175
546 5054
7726 231
2547 2780
7977 8309
3557 27
7526 8786
4986 8638
9660 4226
8847 6598
4087 3494
2058 7337
2232 5256
5093 9138
1402 3206
4266 1737
5080 6114
9056 3557
2718 5257
6068 2015
9965 3411
5067 2056
1188 4747
1255 429
4571 2399
6472 682
9537 458
901 1037
3368 5904
8844 5037
1679 2330
1398 955
433 9267
686 487
6108 1105
3364 5494
4661 5768
8237 3298
4633 8460
3405 7619
3543 5925
7127 7341
6733 376
2915 5737
1040 1108
3682 9577
6480 9930
8031 9654
8923 2096
6471 1564
2320 551
2154 8249
7927 8124
5794 994
3263 844
259 8086
2824 4252
659 759
7475 504
1756 5894
8375 7978
9232 382
9429 2253
8077 1524
4909 7570
6769 2205
3298 5331
9263 5857
4620 9191
1490 7615
4461 3477
3586 5792
1495 1100
9637 352
2779 450
8487 971
3028 5131
605 6468
8902 6205
2855 8028
2193 9089
196 7521
1899 1229
7226 5509
3500 1952
102 1489
2059 3053
7025 5241
1466 620
8724 6929
5646 477
8813 2048
3793 7151
9474 6548
6955 2736
1093 6711
3566 2629
857 2321
2961 1916
3220 3869
6160 8128
7430 8944
6337 3086
8857 4247
250 6773
2537 993
2754 435
8613 7982
5061 7358
8535 6261
4860 6223
3393 5660
8492 1830
2184 7267
541 8954
3525 9218
8718 5408
7529 7701
9560 3278
4769 3940
8192 9488
2251 9976
2768 5290
2872 5403
8520 3343
5971 5408
3105 626
528 3507
5427 139
3096 3793
7912 3485
7364 379
1200 8517
1016 9639
3206 149
626 3224
2930 1890
7299 2703
8033 7899
9518 2562
8690 1435
9294 6252
1394 561
7917 7732
2267 6974
6306 4723
9256 4542
8602 1184
3692 2618
1226 1870
5204 2573
8628 7081
8778 6918
3673 8765
5643 702
8350 5480
1227 1163
5969 5217
8648 7459
2846 8056
3132 4949
5549 4271
6279 6276
2974 9850
6348 7142
824 5667
2698 5612
9454 1041
9039 3475
2852 8074
9144 9563
6576 7959
9084 1860
5556 5655
233 6178
8315 5814
1582 6489
2818 4655
4364 5193
6393 4064
4919 3024
730 6461
6513 8380
7353 1176
8152 6432
108 1311
2991 7161
6045 9878
8043 6065
334 7847
5199 5620
893 4583
5706 7217
1128 9482
878 2915
2178 3130
757 2705
119 6612
4991 5107
9516 2404
3391 2166
6203 547
4695 1297
3245 7197
2257 7817
9144 9000
2880 882
5628 2321
9190 7031
56 6521
6871 8956
9986 6897
8045 6289
9191 3713
7390 3450
7776 4655
7627 4093
1222 7550
4378 4891
4839 885
5943 7123
6314 8786
758 3876
1135 6462
5787 1793
1898 8771
5374 2410
7953 2987
1033 9224
4708 1211
4948 7880
1373 1168
1028 3293
744 2713
5215 1519
2132 757
3379 1032
2730 5502
1063 4401
1743 8822
386 6104
2741 7856
8635 3029
3318 2339
6800 7389
6147 554
5355 7991
1418 1264
2130 7885
1366 7194
5758 4341
1068 1637
2750 2560
7539 2675
6941 4611
883 687
2401 8836
8002 633
9814 7383
730 4734
3562 8170
2319 9047
5514 1261
1967 2038
9533 4726
715 780
2079 8868
9462 4430
4001 691
907 5225
9055 1776
2164 7731
2386 4829
280 2580
2359 2694
6708 2198
6831 7685
4749 1993
1545 7523
645 3898
7437 9409
2973 180
6698 1270
842 6119
5443 1449
1259 7768
1749 3825
6601 634
8188 426
1504 7180
7862 1308
717 8370
7720 3559
1528 8856
1552 1729
6324 3332
5642 9028
5045 1804
5815 7297
7841 8696
3755 4057
3578 1849
5814 5502
7083 618
6022 709
1857 998
2667 7919
4092 1898
4635 2152
1766 7725
1782 6719
1443 4605
1245 6647
394 1755
382 7822
499 234
147 2012
8337 5939
4028 6670
1138 525
2170 2260
5316 4140
6798 2343
5578 4743
2657 1328
2831 7454
3237 4917
1387 5292
2476 9604
7972 4761
7800 4373
727 9348
1426 2010
2567 5439
8382 619
9237 2666
5743 400
1344 9797
5032 6750
8559 4944
3091 7686
3117 2758
1668 6634
3411 6281
2096 8433
3293 3551
1915 5293
8918 734
5536 555
8789 2676
4549 1915
956 3738
4221 6417
8734 3625
3055 1195
3826 8318
9447 3795
4805 3578
8204 4535
7716 6237
6770 3480
2890 9476
5792 9584
3495 4096
4949 4583
3314 9674
2951 1319
6049 2676
5148 5871
8998 977
1308 3621
4043 9527
1462 6495
8337 4020
4259 1940
8070 5439
7688 2751
8790 6353
1712 8596
6899 755
505 5301
3479 2617
7693 1943
6137 7264
6132 3057
207 4132
6680 6021
4819 5477
2777 1362
5177 2347
9394 6217
6720 3639
1644 6831
9575 2156
3937 3266
2369 4270
340 5423
7644 7386
9327 3715
255 5830
5917 3776
3154 6762
2505 6579
866 1920
9863 2708
581 6519
689 8158
5019 4974
1028 1199
9317 1791
4877 722
8858 7050
6494 859
2424 4020
5925 2754
377 7247
543 9796
3494 7772
8569 3063
7071 7918
6487 6349
5292 1425
8905 906
1726 8587
1066 6681
8649 9858
7226 2139
4422 2046
2767 1794
8228 2255
3704 1998
2047 930
4418 1621
4068 4689
2174 5592
2963 313
4787 6836
6614 4416
1248 2726
3009 6934
2581 1763
6459 7883
4594 2119
2828 5522
6863 7148
3719 8756
3630 9501
6522 5144
6479 4027
4275 7505
1538 2176
5478 9256
2498 4690
108 1468
2448 4234
6910 5784
925 9206
2658 4324
2572 9308
1413 1518
1015 4576
4122 7114
3121 3976
6930 3159
2332 525
76 5909
4092 5941
3423 980
1884 4703
2358 8254
2607 3934
1643 4216
8121 506
5415 1796
3200 5779
3224 155
8589 6008
7380 5081
8807 951
1038 7097
6578 597
4615 980
6484 2368
5782 6724
9112 403
971 2909
9351 2682
64 9086
7955 1431
9457 2612
4966 5956
3182 4864
7483 9338
766 106
3770 6609
6791 4086
490 7993
8667 3494
4578 2057
3412 9344
7648 6821
4580 2193
6750 9221
2438 562
2578 948
5001 6011
1109 6615
846 6853
9495 8431
7040 2100
305 6720
4004 100
7098 5202
7425 1155
3454 6263
113 1168
6555 4959
2840 8099
5326 9113
8133 429
2510 9531
8823 8161
1319 5187
3185 3411
3723 1422
9985 9599
5459 474
9902 6125
3340 680
944 8596
4640 292
8788 1677
4962 7319
9200 4010
350 1340
2228 7174
31 9154
3186 4926
6195 5922
7343 2369
2093 7953
7178 836
1658 8344
1884 1993
3446 4386
2001 144
8880 102
9750 2590
363 2374
2595 3006
5238 7239
8907 902
8558 530
4146 6331
3858 3722
9567 4871
9367 3631
7218 3738
1613 9762
3687 846
7250 554
7163 4288
6134 6774
718 6172
3087 8404
2986 7864
926 498
2532 5027
7105 3107
1552 2095
6106 5844
3514 2606
1440 5567
4194 3161
1716 8207
1991 8070
4647 6614
1255 6443
42 6508
4053 6302
758 1352
9661 2750
4798 9924
9333 744
4753 7836
5204 563
9492 4663
247 7805
8735 9610
8753 8121
4807 7817
883 664
3901 4271
5660 1721
1764 7855
9523 9100
2137 4204
1859 1531
5150 2214
2950 2554
647 4407
2533 3613
8712 4909
1007 8780
7278 344
2568 7331
5710 2310
6323 3405
572 1197
7251 2162
605 4489
1535 2302
3278 8678
8149 7764
566 6417
4432 8275
2297 4010
5388 3447
3215 1964
6137 4387
1460 6624
2798 3662
8465 6063
1681 4380
4124 6567
6692 3967
6155 7968
1905 5885
8606 5231
2586 1939
542 3931
2234 6266
48 1038
7712 265
1663 8030
622 9563
201 508
3164 2451
793 5804
2194 7757
3013 1063
2902 3031
3384 6669
7091 1440
2610 287
3019 3167
3790 4044
3917 8199
7077 9691
8938 8425
1938 5961
5157 1483
6325 8322
8410 3192
2396 613
8817 2712
2367 4099
8594 2178
4778 2392
954 5567
8145 7310
8319 1328
8238 1166
9985 9059
9391 1832
2290 6449
2830 965
9543 8940
7185 2363
8767 9543
9427 4689
8836 4502
4610 1060
7503 1161
6507 9289
6465 947
2594 5731
8383 4927
1031 2056
2813 4373
3061 1903
2015 5321
653 3372
5452 8500
1267 1967
8260 392
22 2890
6947 8926
4998 1602
1622 6659
9489 1096
5070 3570
7247 3720
1362 2163
8527 1361
4954 213
8065 7542
618 183
2630 1396
267 2814
1588 4134
7472 482
8766 4118
791 7865
1619 4117
3966 5048
5558 2204
4553 4439
7919 8179
9201 5396
768 3314
831 1499
6138 2358
1626 3109
3504 7303
477 9535
9532 1208
6940 2557
3921 3470
7112 973
930 2964
4112 4096
8529 2126
107 6167
8794 285
2100 6683
5312 2803
2277 5392
152 4231
2359 3098
6165 2315
9977 7937
4852 7660
6527 3521
1273 2858
61 3989
9449 9544
4356 4036
8666 7190
4331 6380
6887 9950
4050 7775
5097 4299
5764 7899
275 2545
1163 1615
8252 1705
72 9531
1826 3307
7122 1670
7517 9313
1199 422
6529 5689
6321 9260
985 7148
3 8781
9280 285
68 1816
6113 164
5171 8341
5043 9883
1868 5979
3853 1400
9473 4677
336 8397
2333 7765
1332 525
3957 7098
4355 271
1584 6622
1414 4103
3464 7619
4188 1444
3425 4415
9730 5108
9018 3813
8592 8639
7634 1510
6272 9682
5997 7048
1396 4682
7863 2262
616 996
4712 6920
3478 898
6584 1604
5097 2513
2308 453
4356 2313
8418 5339
4835 1732
6002 7491
9586 8867
7110 457
8029 9949
404 5323
7784 5417
9368 4239
6944 5887
1711 568
1745 3914
7714 2149
1930 1952
463 5387
894 7749
5903 1284
3996 2220
3923 327
5057 432
7200 922
8092 5186
5325 9798
3410 2596
4602 778
6644 2710
5075 4802
2606 1630
5157 5897
2721 7117
6497 3837
7747 4112
9455 1411
8997 2180
3524 9354
405 3630
1367 1779
4645 4569
800 241
2252 6945
1266 4814
2492 4096
636 4159
7876 7863
122 1881
3030 592
1921 532
1691 9265
6442 734
3606 1268
4654 9379
8326 1332
4100 524
5088 1322
7046 3573
6653 7929
6395 7284
8176 7799
561 6487
3899 3469
376 1596
2097 4545
119 743
5103 7042
793 7808
5271 9795
104 4059
1581 1308
8142 7116
3270 9325
615 8954
6253 2052
5275 7747
440 3921
7194 5712
8154 6968
6409 7931
8379 1799
1884 3054
7653 5545
1924 1502
656 3194
1771 4824
9600 8364
4494 5675
5021 2041
1003 1622
9060 3482
1450 8227
8636 7687
288 772
5419 6688
2498 3468
9546 9227
9880 3826
150 1615
7506 8690
1177 2017
1727 6420
8041 1581
3483 4481
2623 6359
2344 1827
378 6194
2257 2140
5172 4977
4235 2218
8837 6924
6717 489
5256 2662
9714 1034
3467 5292
1772 403
3626 6400
6683 4135
1998 471
5390 7047
2034 447
3417 6968
3879 7366
8824 903
7832 5719
8067 5611
1616 7942
2626 8202
8843 1981
6099 4894
1307 3656
7209 4601
7852 4367
759 6567
8329 8817
2590 5508
9504 1433
404 1149
6067 1212
2230 1787
4689 6032
8223 2589
2565 4276
344 9973
93 2187
3922 1703
205 2522
98 6173
1845 1829
2717 2862
2257 1909
181 7232
3887 3261
6898 7323
6278 2381
1188 1760
1957 8854
3015 9802
3322 9198
5480 6100
6308 1703
2712 3836
2299 6444
4975 6934
5582 4283
3186 1011
4605 1001
9816 8212
9865 4994
8362 1753
9448 2560
8825 255
606 2239
6468 5514
1128 4718
202 6575
2938 5768
9404 8677
2556 5940
4631 8396
8256 2345
1281 4015
6263 8854
5873 2438
4725 817
7668 4016
7810 9407
7598 863
8050 2132
8942 5764
519 7115
4933 1084
182 7511
39 2459
6008 8571
8418 6232
8273 7287
4144 8185
950 9732
4824 6993
3274 35
7866 1462
4730 2080
3754 4104
923 9597
8204 9904
4400 3100
1121 7941
4688 9644
9137 6420
8823 2329
3946 5809
7723 9965
2935 3145
7986 1099
8628 2490
9538 7069
8337 1989
874 8476
9030 4659
2303 5281
2198 5062
8505 6426
8471 689
2320 5535
7553 651
1696 7781
2612 6655
3445 818
9615 1831
6755 7458
4734 9867
8452 1466
6948 5109
5272 5227
3418 2439
7256 490
3510 7215
1404 9581
479 4265
8158 3672
783 8549
6462 392
8539 7995
5958 9248
1856 7724
7777 9283
2686 827
2472 5121
5129 2572
4254 469
9005 3212
4525 8878
6594 2882
7263 1021
4432 8836
962 2126
37 5756
2246 5435
5173 3212
5000 5933
1969 7615
6100 8548
1979 1235
2198 7817
24 2212
5282 1074
7831 747
7606 6454
6082 6359
7548 6241
3107 3194
4244 6858
89 9527
3777 4148
4218 922
2290 2210
1370 8841
5140 5966
1437 5577
1286 1691
7882 7941
350 5417
5730 7435
906 7114
4015 8022
4858 1171
3071 8595
5196 8948
4195 4894
1383 2044
8403 5597
3228 1767
7189 4817
1145 985
5373 3576
3233 1231
7895 1445
5353 612
2323 900
3587 9873
1537 8792
9088 8777
1917 456
2994 1828
1948 202
5456 2298
8712 6942
2430 6179
2887 3967
428 1788
4659 4645
7357 4349
5590 2190
715 6969
8261 2926
1256 565
2735 2901
8504 7996
5493 3888
3262 6818
347 9874
4757 3432
2688 8820
9264 9375
7643 3563
435 3601
5654 6826
1123 5772
2208 1255
5227 7376
2446 6690
3202 3980
801 659
1433 6500
3438 8163
841 7589
9337 575
5340 4396
6131 2024
1242 404
6967 1422
3144 9310
5743 3390
3980 5350
8092 265
515 2387
2038 599
6231 6191
4640 1852
9035 6232
9184 2250
7017 167
5198 3351
1631 2879
3099 7041
3396 6200
9315 8671
1665 1612
8870 6233
1822 817
3763 3083
5498 2361
3526 4454
8064 6694
9492 6183
8070 5106
6116 9276
5063 3998
9921 1492
5348 3609
1437 8519
1670 515
7784 1446
3640 1939
1698 5252
9762 2262
1613 7957
3000 8089
8886 517
1173 4569
773 61
898 2536
2482 7601
1932 2579
9067 4366
9349 1746
7252 802
6761 7759
7342 7500
611 2155
219 6198
2129 4893
4209 911
374 4636
8349 5214
6174 4015
8537 8740
7175 3907
9249 1442
9327 7293
6675 7419
6552 9489
3206 2395
5811 4691
5900 9592
1420 3931
5914 55
2466 1806
8759 5746
6106 5802
1475 1897
6740 7122
251 791
4926 1643
5642 246
2631 182
5890 1109
2711 2240
7451 1497
2414 8726
7707 9330
4970 4908
4055 1968
764 2912
7112 7877
3213 9659
7778 844
1917 1096
785 5323
2237 1368
2981 7621
3678 2868
7263 1971
3641 5205
9164 468
9376 1329
2722 6098
1300 4230
8169 6776
6233 1548
5756 2193
5847 4710
8864 2033
2739 9962
9652 4762
8333 209
2537 4104
1819 2097
8755 7086
6294 1257
4081 6901
8723 156
2778 2593
3284 7009
2809 711
7296 3402
1354 732
993 9269
9061 9600
7756 1168
5467 2075
1431 4032
9374 2694
1782 9731
7430 9613
7686 3075
3425 7011
1693 6910
4347 9287
8321 9861
9086 2469
8825 3746
5211 5008
161 2078
6490 4607
8130 4513
2558 774
9185 203
2349 2247
1350 9986
8831 488
4897 6541
9445 6710
8744 3953
8540 8266
7715 906
833 7675
7676 1276
503 2613
1537 8922
3062 584
8076 2151
9895 452
1013 7595
1342 9619
6453 4968
2071 3959
3375 6269
8180 8839
4011 1531
9413 6628
66 6999
8441 6112
4385 8735
581 9985
5063 1553
6179 2451
9953 4120
5548 1244
7465 1047
4488 3059
2234 1899
6437 355
8632 3917
3927 3165
3613 3941
127 7548
2342 965
559 7261
1472 2293
6205 5806
4589 458
9798 4822
875 45
533 3830
6391 4137
948 3278
5822 7589
4162 2243
9012 7107
7541 1920
120 8903
1250 9210
6040 9900
6859 7529
673 7700
7240 4835
5722 7631
601 9243
4401 206
7739 4971
1238 4711
3673 2381
791 2268
1045 6576
1227 6663
9831 3192
851 9257
757 1415
6558 2404
804 7484
4636 1365
6494 7913
741 6566
132 1417
539 2
7461 1969
1053 6587
1104 2167
2702 2985
8599 5312
2053 5987
3701 5838
4038 7427
1265 1738
6593 7509
4115 158
6297 6512
1414 887
920 6728
4350 2281
8513 8883
7405 2675
4950 5083
1009 8596
795 4675
207 958
1099 6142
310 7337
7129 956
2797 1068
4441 4054
2303 2744
9505 7020
8553 8453
4202 1853
1312 4161
9531 5255
9912 5478
408 7023
1107 2860
759 7396
6663 7631
3571 2463
3539 2098
9556 8045
18 8067
1231 6848
6369 6593
4554 9123
174 316
3059 8877
7330 3548
8481 1575
1968 7620
2203 2433
1214 4776
5800 786
628 1693
4743 4559
9363 6992
9967 3710
7768 249
8153 6667
1104 8289
9261 1403
7646 563
1099 9007
6971 9391
2236 3723
5197 4116
3479 1144
6635 6623
39 678
4944 2815
5485 5238
9247 283
7923 6391
7222 134
7537 1327
5093 3041
6819 5869
2512 9986
3690 4956
1363 7572
6882 1627
4167 527
212 651
930 4841
6813 4184
9859 9517
2271 1580
5678 9931
502 8576
2500 1856
6237 9076
5176 8520
3474 8577
957 993
2872 2636
4356 8130
9420 1406
2548 5723
5674 5491
4218 5567
1440 1840
7492 8095
1635 1096
4937 3593
8465 6176
5132 1793
5015 7969
9216 9326
852 6238
3805 6537
5213 2231
9123 801
4370 3230
1423 4659
4273 1704
4876 9096
5690 6533
7372 5390
2947 6643
8791 316
9021 7456
8515 5168
6390 9263
6101 4220
8096 7918
6519 2881
2882 5429
7099 9482
9933 689
9278 60
482 8529
9536 5420
546 3505
3667 4322
3942 5974
2802 4380
4128 264
3460 7750
4018 5719
5745 1657
797 7799
4740 6833
3645 7118
5201 532
755 4192
9242 736
1603 2248
1389 8692
672 8650
7952 5585
9652 6646
6319 1458
2196 8640
5413 5850
4387 8830
6313 4253
5461 7954
8747 8514
8103 9225
9680 4471
9006 339
1850 502
3309 2339
1883 5526
2715 4681
1979 5957
3477 9422
6952 1381
2543 7904
9998 1860
6816 1599
5304 7089
1647 39
693 5819
9689 6879
2270 8748
4997 4241
2278 2022
8569 9787
3491 6701
8077 4966
1069 5525
8881 6565
3333 1981
2011 9567
1944 413
7923 2993
164 9403
1523 830
2905 2724
1897 9480
5731 4970
3791 2740
3112 1273
3181 7080
6941 7150
6301 5224
1790 9386
4928 4610
5117 6947
3887 9191
8923 3291
8228 6251
7669 7366
7545 526
5120 9286
3825 2396
9384 9977
4134 3954
1574 2006
4083 5442
9520 4275
8915 6297
7045 1483
3514 526
217 2430
7907 5758
7710 4521
5545 3350
84 4071
3081 609
8946 568
5703 5267
5269 9234
9521 6660
9528 8517
2738 4833
4005 2403
9431 4143
7147 6304
9367 1089
3105 1510
3022 605
793 1436
523 2234
3465 9544
6251 8749
3398 7714
6757 6468
1985 667
4360 4754
9015 1183
1745 6716
6963 4487
2274 7075
9815 1649
2815 3507
6508 6963
4634 4652
4230 4686
2178 5119
7659 3504
8855 6667
2132 2413
2882 7576
9157 6367
7811 4483
1178 3691
1002 1292
3219 1477
2154 1293
7410 3095
1482 4796
4178 190
2894 2242
9786 5462
4054 2957
5234 9831
1910 2274
8982 9664
4502 7207
1896 883
2714 9985
107 273
6004 265
6925 8487
9160 8116
9700 2297
6897 9635
8124 3358
8866 4536
8336 3804
3600 2667
8088 2102
8414 300
9649 5011
409 2713
1875 7393
6661 7746
1759 5705
615 8539
9416 4789
900 8450
1092 1455
2346 2514
4146 1724
8366 3351
3694 1993
5558 8210
3602 8052
2280 591
4480 7311
2226 7414
1790 4304
8156 6607
2272 8076
459 826
6892 9349
5895 1085
3402 8850
5023 3887
9067 5775
8123 85
1548 1156
274 1210
2955 7882
4941 885
6761 1498
1643 8901
9824 4184
7687 3296
4118 8785
7832 9501
5507 5297
183 2702
320 7769
6646 2947
736 2927
2383 4026
2227 2965
8154 8635
8345 3182
1507 4036
8884 7518
8716 736
721 3762
7726 2429
1017 7009
9558 9517
7970 5457
3486 9565
8475 7580
73 389
5256 4756
3539 9584
3467 9637
5208 2349
228 5242
772 2484
650 1395
795 5213
250 2229
1658 2669
4719 3539
8061 6258
8020 2347
1970 5826
3606 3732
5454 5647
5292 2535
4271 3518
411 9467
5810 6791
85 2277
1814 9327
9267 9696
3601 1669
9667 2938
4849 1642
995 1407
1365 6612
7646 2649
1021 7989
1622 6680
8543 4119
8996 1695
8172 7707
2844 1295
8866 4067
3188 9432
4627 4476
6582 5069
8454 9871
4019 8935
4653 1018
3643 9725
326 1739
2635 9971
8006 7677
3078 5728
691 1014
5543 132
5280 1920
7957 1738
4415 3319
8600 1546
2882 4034
1852 7938
1202 3861
2147 1894
2100 358
480 918
5865 3231
9793 2079
6741 4403
3164 5189
3314 9204
7902 7135
389 2741
2047 3491
9793 2428
5338 7619
539 8154
1740 2040
1598 9181
8379 4255
208 1574
7353 7953
7268 5255
1416 1975
7489 7263
7248 5453
3428 1369
64 1687
4737 2945
7121 5330
7936 777
4513 3580
2470 7644
4783 4422
3920 113
3602 7080
2903 7233
1358 7110
1121 9644
9129 4050
2500 6009
9803 2995
3649 621
4277 2468
3246 2126
7060 1039
7380 952
2726 5052
9995 5663
4156 5444
3586 4135
6960 8363
4403 2257
5929 5214
5142 5270
7276 2393
7701 7208
8245 9292
1121 9879
6583 2319
8355 4994
384 7715
9493 9807
369 1819
6418 493
8748 3243
538 8535
8622 5791
9835 8380
4672 5168
4349 6973
6760 2483
1004 854
1861 1906
9660 2496
1276 1007
648 1382
252 1301
8475 5703
3321 6129
7027 8300
1014 2034
8626 3803
7012 3981
775 6299
5835 4884
2124 1096
6742 7800
2305 3753
4580 1708
4842 8864
6444 5228
5461 1778
1 2750
8590 2968
4022 1623
790 2069
6356 6577
3457 1929
7113 4476
3550 7990
5075 3891
6381 2721
173 7680
9645 3370
506 7346
611 2575
8432 1374
4577 7950
7606 9092
2470 4666
5937 8868
3123 5440
4811 4945
7310 875
2166 5748
8170 8852
9919 6724
8935 5662
8262 6692
8582 9521
8381 3549
3743 1493
4608 2766
1766 626
5684 5137
2812 901
8018 897
4194 7173
3829 5753
4227 8407
898 3198
6626 3871
5305 1231
1666 8008
473 3563
1125 4374
8824 8356
9383 9449
8899 4115
7243 117
4258 1773
7910 2208
5776 4900
5083 8380
5498 3697
9383 2726
6902 1920
4591 8685
9110 8572
6518 3815
8365 1181
5730 752
5393 4816
4433 4549
5185 8134
2137 6320
7993 3198
1661 3396
2980 7767
4391 5292
3777 8481
5250 767
8186 8404
2487 5751
5552 452
1035 3106
7915 7667
70 1064
3521 4823
2471 863
9444 6158
630 9787
6193 1390
5258 777
4421 5010
1628 9262
8339 8658
2668 9276
4853 1602
4419 8181
9023 7422
8361 5715
2730 2532
1031 71
3279 819
8831 6736
369 9219
2283 6190
5569 7173
5491 6631
8684 2907
5524 6762
5192 555
2541 2659
5263 7393
939 1439
8555 5043
1704 1904
834 9448
1951 8723
2148 1323
2755 3711
5987 2509
1408 785
3009 3609
7522 1974
9841 828
9557 9384
519 9349
4141 2365
6033 5817
119 6108
586 9418
7104 3442
7885 4552
5380 9252
7783 4328
8009 4838
7040 6453
8766 6715
4507 2612
3806 4861
5755 8909
8121 8304
5144 2455
6804 1346
7571 6610
944 5126
1735 8267
1737 9137
9489 907
5856 4548
4177 7745
6731 203
8064 98
7099 2245
6228 2174
5166 6550
8083 3140
4823 8121
7301 8905
9931 218
8540 3669
8844 2083
2184 1550
4539 5461
2278 1273
1594 5385
8265 6190
3888 7559
4620 2188
2832 759
6215 2525
9724 7031
6736 1979
790 3021
2627 2739
1288 7708
4165 6121
4005 156
598 5308
8351 5925
2213 4267
2793 2124
4392 3128
48 1698
6060 3932
1606 5225
2682 2747
1199 569
9883 809
2528 9538
5869 1310
8708 4674
5157 8950
5825 409
1976 1660
3307 5547
5205 9272
3335 7477
8774 8102
3075 8916
9991 5161
1044 2035
1253 2463
4447 163
9483 1943
1292 2096
7480 3585
1160 1778
3253 9605
1850 3489
9798 7734
5144 5309
6496 4296
1851 348
2266 5664
9201 8709
2278 939
5217 7164
6657 1842
6084 4783
1289 4620
322 3009
4255 5236
9370 5653
3981 7997
2679 7934
8346 9507
9663 4932
9579 9812
653 921
5900 6446
4722 7612
5344 4955
1879 8942
3798 9899
3862 7667
3772 5008
6538 1404
5928 9088
5204 7203
1124 9894
4287 166
7610 730
3799 5639
6208 7682
1269 35
5350 1625
4302 2594
7102 6127
9069 3583
2219 7890
8365 793
7501 6203
6076 9832
6875 7436
588 531
2259 9064
7404 6194
9454 8467
9015 160
1927 2236
4443 6419
925 8456
2669 431
2023 7538
7435 2424
1640 5919
7473 9335
5764 998
1520 7662
3345 1424
8588 1247
5985 668
1973 9914
5919 3095
5145 7189
6072 1962
135 1153
348 6436
7383 1099
2836 9193
681 1921
3655 4635
7435 1045
2872 6344
206 2150
1762 5509
1259 1997
6391 9561
1618 7573
916 5533
7620 9696
698 2275
4754 2133
5977 2211
8836 3310
525 5262
3423 8113
4493 7997
97 8573
9698 6122
383 5672
3189 4689
7329 326
6892 1992
7483 3309
8535 13
9167 1079
7189 1055
6690 6215
7580 9135
5789 2815
2633 5144
6725 7697
565 7741
140 7141
2601 3907
5049 8491
3331 4511
2822 9122
857 2208
6088 840
9197 1311
884 82
5186 4806
784 4302
9566 4944
7064 5799
9425 4096
9171 9722
7381 4452
6773 5175
1734 203
885 7689
8067 1060
9362 1705
6517 313
4241 1775
1808 284
1162 7579
9817 5265
5557 7956
3751 2381
1551 8255
492 8140
4721 5586
6165 3721
3106 9833
5504 2442
6556 3768
2382 2042
1405 130
2057 8875
9663 5610
4376 5563
2297 7016
5537 8327
4279 5551
3822 270
9272 3836
3683 6391
391 113
7246 2756
5085 2547
6112 2217
7172 4049
4204 4632
703 3494
6685 159
2056 1425
9548 9093
1113 5043
5059 1280
9440 8888
6412 5211
7549 6009
5101 5958
8573 9409
8360 1006
3180 7951
6781 815
4295 3740
564 7623
5680 6862
1704 588
341 3419
149 6129
2803 2578
6582 9413
4438 2119
7256 2652
9300 4205
7411 5347
9180 5769
4650 3998
1769 7716
1761 9220
4235 8705
1438 7581
9288 1264
2835 3515
7118 3682
875 5239
9853 6510
7635 6637
195 8979
2267 3050
7511 9359
5997 5525
5802 8304
3133 572
2523 9481
785 2576
4218 6087
8675 4388
4543 2004
3429 1986
9740 6652
9365 5535
3120 2462
8465 9328
8542 6629
9228 5709
6301 5608
2802 6084
4017 9551
1000 2881
9946 9623
151 188
6219 1991
8763 1236
8365 5892
6791 7675
9237 1890
9595 6674
9060 332
8649 5255
6062 6278
8868 4939
7086 4128
794 1849
311 6094
84 852
6909 3254
7179 3824
5894 9337
8365 1860
2203 166
7248 3022
8627 4076
8487 1623
1426 3214
3251 7416
3021 5324
1019 3902
6882 2063
3966 1803
1462 5172
6856 3261
6350 2526
7444 2178
882 3397
8786 540
3103 1875
8457 9089
1837 241
4830 9430
2336 4013
8358 7438
8898 7983
5688 3533
2769 829
4566 1858
2388 1915
7965 1124
4036 7254
315 5340
8041 2867
433 7636
6483 4035
6794 1102
3082 5307
4827 6920
6744 6065
3850 2174
2389 3593
7524 849
2963 2273
8633 4855
2763 1033
9163 7074
4103 9832
3416 1397
5138 3258
2195 6821
5053 8398
2426 2284
7492 9312
4851 1460
6896 4210
7865 7106
4174 9376
3046 640
208 8052
464 3328
3170 9591
9145 1518
5215 3082
5394 4294
4693 7972
2064 6773
7127 8220
3778 4484
6642 1881
385 6498
6178 4792
9560 2945
5845 4910
1719 3781
2848 5790
5379 3976
1713 5309
5712 945
7173 4101
8689 437
1211 5527
7135 2255
6616 2724
8601 9245
6860 3294
4315 8795
805 5658
1890 4564
3746 7657
2110 8917
363 9079
2489 420
2944 1027
9607 4081
2607 8720
3998 3165
7338 9564
5753 6872
7495 2639
7368 5039
922 3414
2473 2886
4288 7857
6061 993
670 7434
5732 778
6761 3015
9162 5982
2327 6401
3447 4041
1446 8741
3041 2739
3243 3307
7061 3706
6574 2966
1574 7266
2516 2763
4260 9387
1277 2245
4305 962
5855 3640
5968 7403
1651 9733
6559 909
2846 4510
4487 8942
4755 3002
1329 9121
5542 3403
8684 7452
9028 1902
2044 8255
8386 1443
4788 9458
947 7342
2647 5663
526 1869
3611 1840
239 9034
4096 9610
1165 787
7392 2986
892 777
9863 3662
1764 3318
4581 583
97 1922
6785 29
652 7447
3808 2036
6378 8708
2599 2143
2356 1759
1325 8754
567 526
4980 8955
3164 7480
7002 8148
9354 1144
3435 7410
2491 4402
1657 1650
5085 4233
8670 8773
6186 8351
2945 7672
5178 3406
9464 2682
5463 6375
1949 7816
737 7017
7908 7211
6707 5797
7260 9716
1398 6384
3396 3878
917 3128
5919 4213
3200 3242
523 366
8308 2387
1230 1927
6091 1701
5107 6488
5953 2829
5732 4778
7223 2819
5367 2335
571 8226
2286 1827
2183 280
3818 5201
7752 1088
3552 6216
5410 5934
4495 4848
9555 138
640 3672
2389 897
1343 6930
9144 4425
2025 3169
9327 3748
6406 1985
5514 678
842 8088
4164 2586
2566 5979
2926 4993
916 2308
1051 4189
995 1955
8909 7310
3951 7859
8481 8730
2085 7070
4038 1282
3125 8132
3651 1587
2793 7976
7049 8650
6325 9259
935 92
5760 4973
45 1141
706 4288
5060 2463
5918 5584
108 1957
7954 4448
6069 2744
1196 4135
1618 8642
5968 4283
7930 5161
87 9052
8833 8294
9546 2804
7847 5559
8847 3406
4703 3714
8563 6197
5203 8411
4489 2094
7798 24
241 2248
7994 914
1869 5042
9315 2399
9361 7854
7196 3726
4873 3654
2040 2578
1486 3340
1388 7715
9996 6662
8939 4785
1998 5385
6545 1195
187 2005
5845 2575
1350 610
4393 8258
5552 3641
3779 802
2288 2854
7617 810
7526 1613
5992 2358
9468 7722
3646 2328
1166 1517
1241 8778
8700 5286
5287 3173
1981 9998
2863 257
9222 2198
1000 5758
4716 3475
3641 8915
5606 6603
9889 1444
6678 761
296 9145
3754 6119
1237 8365
5342 2748
7617 2469
8228 2644
7691 9282
5399 3216
1150 1608
908 1917
3617 5903
2857 6713
8445 7993
347 2499
5844 9398
9219 4786
2703 8501
9248 2010
4681 6300
6531 3754
2219 521
7551 6441
2855 4890
6992 5731
2217 282
1933 4590
6410 7149
1729 3522
5255 6110
2182 8952
1842 1638
5827 9841
5719 9408
5496 7723
1794 875
6998 7632
8415 2720
1045 47
5474 4100
1568 239
1256 7824
5860 1745
6381 2223
9641 2694
9279 9224
1424 449
915 2173
974 9006
8295 435
2215 5058
456 7267
5567 9941
7093 8432
7725 1838
307 8058
7729 205
978 5362
263 991
592 2591
396 8253
3245 8416
5792 2022
2319 6515
4621 5055
8599 8038
8232 7432
2451 460
6549 2097
7285 4914
4015 3500
484 8338
2328 4948
545 6375
6286 1551
1709 5683
1584 80
6329 7118
7647 4784
7519 608
520 2158
1247 1024
2544 6036
4091 1405
8049 3516
2775 7309
8213 35
9196 6325
3248 9021
7260 7769
5250 2121
5227 3204
1821 8822
8620 6649
3989 390
4201 203
6214 4178
2839 6091
8794 8143
7289 4256
6426 7775
3796 347
6020 2522
2467 3835
2159 5599
1483 6030
3115 7478
2242 5594
7980 984
492 683
4761 8272
6726 4253
1967 4676
3655 9517
8028 8799
6787 2971
4601 2609
9794 6642
6087 1514
1921 9723
8989 322
1719 9999
8784 8476
1146 9260
725 5532
466 8010
6243 3943
3983 446
141 1370
5959 5471
5934 9134
5699 7479
981 2682
3898 3932
628 4714
9246 8815
4691 1294
1222 6404
4730 6518
4235 4884
1743 8364
1815 2543
7660 8994
3226 3510
277 1678
8463 3241
2841 820
7199 908
7767 5123
6757 9535
339 2066
4498 1901
4009 2476
6929 7093
9136 777
8333 1880
979 2304
7025 546
108 7257
1777 8605
6786 4408
1864 7234
2021 6071
1761 6193
5415 8451
9930 1427
9485 2362
565 9582
9942 291
4992 6265
2059 2047
5864 8401
4936 7102
9498 6171
4858 1413
8091 698
6794 6367
536 1444
313 417
6528 2240
8172 3650
4192 9938
810 2171
4863 122
6515 3627
3548 6010
8195 591
4852 8567
71 2208
7385 5922
2287 7453
2383 2423
8453 219
8073 3285
3038 2697
403 3919
1310 5865
2305 7747
3393 8604
1480 1593
8775 9997
7179 766
5183 8289
3386 6306
7703 5693
5285 6958
8483 1913
3239 8986
3708 3860
49 6990
4619 5064
660 375
5591 7167
3476 8189
6490 4853
1801 8035
2795 6608
6919 94
9767 4798
5152 3209
1873 3630
9784 488
3101 9106
378 3260
8295 6579
8490 4679
4121 7445
7402 6720
8332 9324
3360 1417
3999 7423
7272 2223
8438 3132
3014 5906
3333 8621
9439 677
4877 3482
8377 1144
4277 2191
5280 7925
7901 7359
4634 3591
3551 3080
3565 2338
648 5497
2367 1007
7222 593
4942 5670
1057 7866
4930 769
206 502
2832 3311
5570 2409
3312 3142
6484 4872
7793 8860
3079 4880
3403 3320
1254 4057
453 2580
3601 1308
1816 7350
2103 4724
228 1392
9796 1569
4114 6837
6589 34
281 7212
6601 8964
6053 1354
7138 8629
3365 3451
4332 9214
4468 4112
1286 4705
1130 7072
351 2080
5011 1496
9227 718
8608 1141
7590 4697
2925 1380
3319 120
2340 9991
569 6929
1744 235
2758 3791
7508 584
8725 5666
3948 3032
6806 967
5332 5868
9547 1754
4472 1307
9353 7257
5628 941
2863 9099
1245 9559
1415 8672
4088 5223
2171 1483
1977 6594
2809 5693
8566 5116
1577 8164
7181 7800
8383 1028
7323 8833
861 6740
1935 840
5114 4636
2431 15
7832 3550
4329 6118
995 2451
1740 755
1590 263
8632 663
8626 8520
3251 6175
2001 330
414 5720
3992 1919
9735 9031
7756 3141
49 967
6550 928
8529 9092
8505 2058
489 6456
5123 5992
4346 3172
35 2303
8965 6722
6186 4230
8340 6088
7365 1022
2951 1984
9018 1216
5265 3797
1952 8453
8980 7680
1108 9212
7961 404
6378 4487
8949 5559
1504 2679
1017 2258
9737 6330
4985 5243
1641 865
3439 6993
8828 2183
6704 9671
716 2575
2207 6437
3427 2637
5345 2091
877 6952
5905 4919
3969 8702
8149 9065
6946 8137
9233 7605
3953 768
7914 745
5782 1473
989 8688
3039 6526
3873 8678
3751 4661
1691 1757
1482 7044
2208 3199
9816 6621
7600 2341
3129 1190
209 6663
6736 9604
1002 9237
9731 5434
2657 1174
1274 716
1799 782
5973 2617
338 9557
195 2217
443 3302
8144 5491
9082 9589
4830 4001
1118 3877
5656 3672
7537 7001
9731 2099
2236 4217
2374 2607
6103 1288
956 1036
3971 3315
6327 7026
1196 5212
9527 3299
9721 3352
1995 5952
7461 7733
4695 8191
131 9473
9911 6490
686 7
4962 1179
3375 2811
8211 1495
7122 9272
5076 2649
1211 8903
6588 2177
5221 3667
7563 3740
7451 1227
7107 6101
8059 1991
8362 8828
1143 7807
5277 5222
2190 9032
4406 8486
5995 2321
4593 2699
2732 7357
2988 4617
5590 5057
5805 5725
8710 833
1368 8219
6091 1142
4113 7769
8035 771
1119 8866
723 9064
2162 4068
3802 9782
3607 3435
1736 6020
9897 2050
236 1201
9754 6550
939 9099
2978 2254
8872 9439
8806 6424
928 5426
9133 2485
996 1440
6735 4568
3805 2163
9232 2459
955 311
3820 4290
5070 379
754 4004
5081 6042
4006 8600
532 1547
9202 7740
7665 5637
3453 4123
1153 8535
4846 8704
2536 2648
2546 9974
8158 4762
8941 3987
6599 3796
8173 4324
534 4448
3125 1018
7469 7777
2857 4229
3864 2730
5525 624
7963 2395
3523 397
2184 7501
2189 1810
7462 6465
4367 5205
1614 6019
2001 6404
4600 4069
4436 2888
6566 7705
5690 4171
4047 9118
9755 7447
7103 640
5092 6273
4620 6105
1875 4870
1644 2556
353 8580
1494 7316
4351 3692
4838 3832
5685 9926
8037 4545
550 9879
3368 1135
920 1471
3447 3433
1091 8341
6481 7540
6535 4215
7246 2742
3235 7708
6149 8204
5091 3789
640 1976
2058 9411
9628 7599
9984 8930
1973 994
9102 1271
2274 9994
2312 3390
5213 6442
5129 2008
5526 9968
3973 3674
824 7868
5275 5161
683 9380
411 3605
9052 7879
7223 4115
2314 2688
1451 1952
7922 7070
4545 8050
1918 9970
1617 7329
873 1752
7543 7926
8902 4890
3623 803
625 465
7541 1252
8598 3597
5808 1124
5634 9271
4222 1171
4823 8741
7662 5526
1075 1550
1514 47
2066 3790
7148 9311
6707 9788
5874 2282
1337 1851
7189 5913
5603 4638
6982 6085
7775 6031
106 3603
202 1057
9304 6187
218 8596
4448 9278
6912 8330
6511 7639
2552 2920
2704 3361
7139 1630
3381 5641
3159 5291
1862 1781
1157 8539
2424 309
4460 1666
3154 3529
2860 7725
6125 3620
3325 2135
8666 831
6289 889
1752 1745
503 7558
5878 7661
1345 6246
6886 6349
4761 9457
6930 5342
1903 6511
8403 2347
502 8685
7520 4783
1856 4419
1284 8469
103 5204
963 6434
7582 8901
254 3829
4183 6641
5285 1790
4950 9420
1693 6061
9365 4567
1634 460
7209 2484
3023 5008
5045 6778
2331 939
7422 8635
7718 6278
9344 2388
244 334
2847 548
6281 1436
1920 609
566 7785
24 4823
6675 4209
1332 5107
4542 7927
4587 5504
99 7802
8370 4367
7740 6967
6239 7452
8538 5903
7136 7006
9205 2635
6124 2975
7664 5421
409 5870
9617 4616
6160 4017
3648 6306
6783 5998
2477 8232
9070 6972
5319 4627
5283 1381
4922 5835
9737 1375
1497 2281
703 9420
6029 8673
5133 142
5180 1648
3644 5871
1357 8178
8327 912
4603 3943
5740 1968
520 3254
9368 8944
1780 7155
1730 6484
3310 9133
262 492
4522 2587
7333 3188
5460 5177
9578 3897
7012 7597
8449 7261
1267 8527
6243 9005
5101 952
5525 8177
7543 2874
642 291
1682 7600
3718 9844
6128 5383
4908 11
7414 5614
9914 607
500 1338
8380 8439
7681 2989
2782 8192
314 952
1614 7984
9181 2782
1825 6824
3440 58
2804 3311
5704 1492
86 4828
4855 5569
1685 260
4613 697
8630 8245
5170 508
4137 5858
187 9159
9132 8320
3259 6596
2591 8816
9988 2656
7623 8847
6366 8544
2215 9882
8095 4902
5276 4613
4764 7601
6120 6686
734 2180
2033 8638
7289 5736
4203 592
3865 2451
8355 501
349 1835
8237 8662
5305 4342
1505 1148
1031 692
8913 4237
8814 2751
6559 5576
2150 8017
4652 9858
2266 8791
4276 5825
2926 1461
2376 9434
8227 8058
6908 7398
3929 7205
5138 4267
5861 7688
422 9368
2100 5788
4924 1264
9694 7734
1271 2826
1566 1352
2939 9928
5872 1499
9573 2584
6412 1819
3370 9832
7427 3411
5773 2109
3527 2939
3557 4725
1488 3087
8622 6186
1868 8354
1486 5434
4438 323
2348 5750
8587 6303
1388 472
89 7351
2205 3193
8633 6179
2183 8817
254 327
2607 4768
766 6196
8510 7020
9425 4242
3185 252
4280 8766
6289 9109
9695 7071
1093 6931
2582 189
4087 1882
860 3939
7589 669
8733 9764
4729 1311
8447 92
4059 1480
2759 5529
3157 3258
7089 2634
2327 3412
911 2630
9004 9767
1217 608
3341 8760
1174 1098
1572 5206
4306 2168
1204 9532
4113 262
8903 7352
75 1148
679 4317
4873 1953
946 661
999 8590
1560 7324
6058 2484
2983 4473
467 1345
8825 1294
3012 5742
6363 1075
5651 9021
8593 4733
8733 2290
9049 6565
6157 8639
3085 5158
4573 6180
701 6039
620 214
9228 9610
5040 5023
3562 947
5246 2999
9042 1629
3304 530
196 778
7526 3722
3670 6570
4808 7391
5958 9230
9579 2091
4724 3548
6506 7546
1534 6854
7287 6154
2043 3863
6970 6640
2524 2029
3529 9836
6624 8365
7209 6029
8487 2419
2740 7112
410 233
2811 1269
5176 5210
637 3274
1876 8840
4649 3388
701 155
9745 3907
1246 7946
9216 5118
871 7375
7933 9431
4267 3302
1984 5272
8637 7526
5972 7806
8388 723
9773 4860
3158 2259
7036 5571
9188 3584
4001 6897
5746 6413
8609 5976
1979 8461
169 3473
8818 64
5713 2672
3036 2511
372 2682
7260 7210
9311 7732
14 6240
8215 493
1112 3247
8352 143
5838 4604
5052 9266
2358 150
4672 3713
9451 742
9245 8881
3030 9993
7070 992
4057 801
3374 5147
7421 4937
9484 9362
527 9256
4449 1887
6695 6167
1568 5925
2137 1926
4847 309
975 6540
6134 3479
6167 1630
2422 2679
9385 482
8540 9134
8524 1716
8549 6483
1401 2057
628 1249
7999 8210
5810 3531
1241 8595
6613 701
1229 5381
8692 2308
2951 3112
3066 7713
8533 1165
8394 5898
2980 4435
9602 2386
3227 7536
1714 1899
694 579
7054 2488
8870 5815
658 8535
3607 8763
9750 2799
6322 5232
2915 8935
9924 2514
2949 4935
4719 9195
9649 6499
8127 7108
1608 2117
6096 2045
2476 6298
478 3791
6643 2720
4108 7984
5610 6941
3561 7254
4652 1092
3457 3248
4867 1860
8912 8050
670 5906
6796 8767
2468 2136
5587 4412
6087 238
4049 530
3165 9816
679 1172
8523 2127
5818 7666
1074 5717
88 7006
7935 7763
4272 5469
2925 5845
1681 4303
5758 5769
4131 4434
1386 4627
5334 1844
3671 3669
680 7017
8202 5677
7675 9020
2621 6976
6166 3784
5713 7061
6922 1609
2550 8309
8776 3902
6489 3650
4753 4819
2380 9140
1694 9485
9196 2716
3793 2788
704 3715
6876 8728
4733 5106
7057 7053
114 4072
153 1225
4752 9031
5945 1472
7161 6000
8737 9293
8750 2193
23 9956
4881 5020
7284 5942
8018 4841
2141 2980
7096 3918
6357 2696
3694 3487
8097 1808
5745 3537
1148 1916
6135 2147
9323 427
6770 2958
9828 3888
5620 5324
6907 5195
6709 4648
4301 101
2691 3604
9697 6044
1242 6673
8443 6384
9812 3130
2050 7709
4435 8802
9813 3754
7133 6623
7370 6353
9318 6311
5015 1440
2340 1050
1269 3904
1487 5344
3441 4228
1848 8533
6068 7955
7868 2145
5286 4298
536 509
2158 1532
1279 1075
2414 603
506 6837
5149 3324
7392 2033
5636 4437
5174 9844
5421 1802
248 508
6536 9321
5144 1618
1776 7043
1878 6584
1870 9676
5410 7327
2572 708
7710 4877
8045 6135
39 4093
1403 4994
5445 6646
3089 8567
3105 3569
3659 6963
1431 1317
2714 7886
3260 6245
3788 2290
5585 1245
6011 8959
3929 1145
2196 9487
3640 807
1404 1686
6076 9389
9630 4604
880 1678
1608 9326
1678 9321
3959 5345
9813 6722
2239 1161
667 8261
6592 2265
5941 1769
1125 5627
4917 4753
6383 2771
2548 7241
2785 8399
8912 5119
4237 8818
199 271
1024 5409
228 2820
9049 797
3113 60
7135 4658
4558 2139
2820 656
1769 3266
3460 1896
5455 642
4163 585
3626 5867
7014 619
940 8906
7152 3883
7314 6115
4000 9785
6348 2251
2569 6751
9228 4137
563 4323
4221 350
2624 1806
4838 9698
2097 414
8111 7153
2089 9768
5171 4454
50 4194
2807 9767
8447 1169
6314 673
6034 5854
3118 9957
2911 8991
5158 3379
4049 5907
8895 3990
7068 6877
8788 5569
8946 9172
7548 632
393 7818
2887 8546
685 6476
650 6412
2946 7162
3159 8722
5453 9592
177 7978
2148 6724
2542 9986
882 8361
7149 6619
1968 4915
1898 1461
8752 3827
8383 1582
2988 117
5422 6997
7775 3553
4396 1716
1921 6239
1216 8349
8953 7407
957 2515
7102 5975
5964 9468
2719 2142
3038 5958
4052 89
9856 2968
1860 4307
1792 4667
1304 1635
4990 9209
3008 7480
535 1012
1396 2360
1262 3722
7758 9978
4379 4999
8279 656
1881 5115
9582 6442
4411 9422
7568 1687
8527 1762
4212 6508
9974 4248
455 2458
9522 661
9208 4587
5504 3798
2772 4605
3176 4017
1460 3954
3155 2718
2629 9799
8621 1831
8793 1956
139 5820
7676 1348
111 2825
9050 3366
3385 1612
1999 5026
1584 7378
3727 2704
609 3729
7735 2709
2551 7259
8019 7488
5484 5425
9090 7556
223 6758
503 886
119 1958
4289 1370
2519 4455
5213 1016
9042 4975
2250 5205
2848 3158
2285 96
1570 9693
8886 3226
4083 6479
2691 233
1663 2567
3044 7663
9832 5890
5999 5862
2503 502
8229 8095
5536 9956
9908 7100
6681 2250
8430 5674
7932 651
3434 7603
1738 6435
3578 3362
2643 3558
797 7816
9172 4984
4629 4511
5232 2995
1099 2093
9234 6580
5074 1292
3585 1478
4873 7992
2597 2740
9749 7000
8857 3049
5791 3728
4418 6698
5609 2678
4975 918
8791 132
7586 8749
2124 7613
7150 687
7218 2451
512 5014
6846 3081
1267 1719
5747 1573
4111 5445
4630 2104
3986 4086
6338 4016
3937 4618
2461 3086
5233 8761
5962 3044
1969 8557
1329 6065
5418 6592
6908 9616
330 2022
2019 701
9517 6686
9930 7226
4030 1829
713 9026
7388 8044
2125 2748
3952 4028
3597 7153
7742 3367
8895 3921
1178 1568
1724 4083
7277 1645
4481 2236
3704 6284
3815 6514
7752 2932
8726 305
4491 4749
2086 3694
5010 5283
5798 7402
839 2919
7696 4265
3169 7094
2540 6099
2325 9102
9237 9307
143 5631
5385 2158
3906 7870
3604 2462
4492 7552
735 4896
3117 6756
2053 4387
202 6705
2839 8034
4765 8979
2656 7228
7887 4544
1915 9954
777 2176
1780 656
535 572
5132 1039
7998 9318
273 3914
2896 954
2925 9360
8557 1795
366 4506
8188 6528
8790 9598
6923 6825
2820 5667
147 9165
403 9061
3999 1501
9249 475
7918 4575
4834 6503
8535 91
9158 3054
9069 9626
6792 8025
483 1809
8761 9803
4369 6744
7565 9621
9528 7999
1748 9862
2835 7715
4219 1270
9406 6414
9684 8996
859 4589
1203 4910
7395 1046
9275 9954
2682 7833
7737 6723
2358 4598
2654 3918
8785 5423
3139 6062
3053 976
9448 9676
9015 7500
4109 7627
5439 1482
1413 7731
871 9808
5480 8588
1946 1038
1624 2574
4656 3150
8454 22
5903 3194
2213 5611
8883 3951
7855 1154
7297 1153
7912 2863
856 3599
7488 3453
2634 2665
908 7152
1338 8271
39 9672
581 2011
9189 5689
9478 6465
7240 3993
3861 4790
1287 3226
3984 4255
1355 5865
2013 860
2812 2293
3470 9941
3532 8340
5942 1155
2162 4546
283 5794
89 7964
5484 3909
5866 7500
4581 9211
2456 677
1 3505
5706 8530
3583 8808
6110 2666
6280 2120
4572 3191
3840 8229
5321 2311
7947 4001
7309 5091
3138 4274
3671 3070
4326 837
303 5791
9269 6131
3596 9155
1882 387
2216 7340
1817 3393
8496 7231
1899 1117
7296 8669
6359 3479
7695 9664
1186 6250
6007 6313
5513 3382
1655 7799
1340 3826
7596 3466
3021 2513
1918 6168
5321 6181
5079 6128
7462 7106
3881 5038
2766 3732
4304 1423
58 6787
2166 3429
9219 4342
4358 861
2117 1638
4979 9230
1782 837
9290 8549
4421 9726
5348 1039
4390 8558
5009 9254
3933 2355
1538 2000
2728 4
901 7572
1378 4258
9238 911
4934 1646
2148 6502
5073 9803
2946 7645
6395 6756
8911 1415
7766 4145
3576 751
2488 6582
3628 662
7590 6557
3569 5533
4962 6902
533 4518
4167 8075
6087 9846
3937 1225
3911 6126
9442 3020
459 3130
2483 3401
900 5865
3688 3762
193 4863
199 1782
2850 9415
3898 1511
6607 93
8131 6624
2474 8619
4144 6503
7186 7778
5631 3071
633 7739
3859 8673
4184 3438
5607 2284
2754 9747
5762 1578
551 3368
5741 5381
2730 9699
5729 8490
1188 567
1924 7228
5834 3052
4437 44
9837 2682
3206 1336
4209 4470
5434 226
224 8897
9583 6307
1807 1565
6669 3904
3905 7762
7279 7227
843 816
3362 380
7913 8885
9820 9234
15 3345
5583 820
4177 9576
2574 9869
9591 1799
7615 1688
3675 4731
7554 6376
1221 9407
4801 364
6809 1045
4008 5169
143 7191
1718 7847
7444 173
6324 2856
863 8449
2758 1495
5943 6674
1744 2214
7107 326
6796 3146
3537 1508
2617 6483
9531 4784
2117 6662
1414 2184
1678 2909
9405 1135
357 2099
6047 1064
6964 2472
7908 4134
8545 9739
6469 2001
1444 3305
1836 5771
8470 5233
8874 7459
9963 1386
24 6026
9057 3511
5472 4420
4297 2154
13 9010
9013 3190
2816 2462
2755 2153
5429 6822
7401 4842
7157 8476
3425 7776
8077 1741
1079 6356
6046 5089
4737 1703
5206 9347
2398 470
6800 9730
4130 461
871 6134
9297 6186
5217 8470
1274 4596
1386 9754
6726 1100
2237 4365
8768 2722
1035 1429
7703 3771
5317 5638
1410 3281
1260 3316
1860 9340
6044 6056
7233 3392
99 9108
2991 2231
8008 7466
1120 496
8490 9594
5791 1655
1543 5594
5736 1095
6207 5916
526 2510
1479 4618
5479 6129
9122 7157
6266 6303
9453 8382
685 666
3962 724
984 3011
1551 3792
9150 4709
7599 9821
5740 4661
4970 2365
7458 3848
1 8631
1907 918
461 741
5160 4414
640 6909
4617 2554
8875 2126
2590 627
9010 590
7107 3528
9037 8833
6011 6252
4320 7341
662 7117
782 6380
9782 3324
2505 897
7150 7882
5485 4222
5228 4768
5182 9270
553 5362
687 6974
2078 2388
5476 3434
9833 9325
9258 4405
7840 3835
6245 5872
9285 1032
75 8079
2347 1564
6864 6385
5128 8370
5376 6783
4252 751
260 518
7889 7009
7935 4120
3762 916
41 4639
6737 2027
1070 6596
7332 332
4647 7023
9440 29
4009 3872
3049 4766
8828 3886
425 7895
1791 1646
9055 7316
906 7590
6777 1390
8197 3490
4357 6411
1367 9174
1108 1033
8929 229
8208 1079
7244 290
4672 9972
6576 4437
3578 8828
1670 4545
9496 2512
1985 2468
1950 1878
5832 7006
5850 4641
1879 3749
525 466
4567 7127
5337 1823
123 1634
9676 5571
3741 1985
396 5573
136 9192
3875 9342
7879 162
670 4357
6045 5480
4576 8782
2967 405
7308 7283
4991 2296
2722 7136
3970 3706
1993 4885
7540 3105
7503 7464
290 9075
3901 9321
7113 3519
447 3290
3622 4889
7986 575
6893 4580
4062 6530
9453 85
9062 2075
1907 5269
733 1869
351 2007
5516 2324
4132 3979
5714 2878
7796 882
5419 2551
2763 7075
5283 7354
4282 2461
1821 7157
7511 3470
1327 3324
6115 7924
8129 5089
1533 5842
1526 9810
6469 4709
521 4019
5683 1255
2124 4862
5305 4612
4285 1608
7942 8251
1402 7910
7229 4503
8262 639
9253 1823
1084 4292
1298 8155
1700 8477
1140 4856
6932 5798
8766 2381
3497 394
9114 4511
7270 7855
6619 9826
2779 6146
6339 4177
2842 2724
6278 528
6966 8102
3534 2511
7997 1488
7025 2898
8840 4936
832 5727
5968 8833
8433 7943
1107 5186
3103 6521
3783 8761
4752 1204
2286 1904
4472 715
203 4798
8925 5166
3301 9937
138 8214
8825 1130
1767 2160
1556 473
9081 2303
9745 7612
342 2203
1888 5442
7468 6030
7016 8645
6402 3009
7134 7927
1695 5234
6806 5755
185 9865
7274 9848
6145 4812
8585 4666
446 5535
961 8873
6119 9935
4864 4990
8581 8321
1783 1522
7623 8822
8881 1034
3016 2931
754 5505
5726 3838
5299 2452
8756 6731
765 2083
7003 9688
548 2166
8269 7733
8343 9999
3314 8249
8949 751
6454 1809
4145 1563
3514 9417
6777 848
6953 1008
3987 308
8815 4135
1049 368
7013 218
5832 4203
5456 1731
9011 3400
5819 8587
4093 7027
402 67
3415 7143
6481 1602
9734 2548
6219 5535
1896 2703
5327 6865
617 251
1576 2469
3217 215
7621 5440
9168 1543
8152 8565
2062 7831
5666 8585
7084 909
6111 2486
7934 7807
7630 685
5645 3701
6884 1935
9224 8144
1697 8014
763 2091
227 1151
7523 4097
8618 4323
9344 1056
732 6550
6044 1852
5129 2263
6987 8678
8609 1338
3203 6078
5317 5466
222 8631
9484 6579
9230 5642
6071 9854
7489 3134
3815 6766
2405 6583
5565 9452
5102 1932
8274 8014
1093 3246
2440 7581
1955 7909
7825 1190
942 2221
2478 9169
2611 417
6363 7233
6181 598
441 4603
5732 1228
1452 4634
98 6400
470 226
2594 2213
4851 5092
2834 7797
5047 2082
2011 9490
2053 8116
9430 3426
194 5673
7665 9291
7160 9329
5363 5339
479 667
7836 7531
5081 8811
6624 6436
9021 9471
2613 483
8440 7585
8987 4377
5150 1199
9052 2086
2422 4154
6900 6583
1527 1212
2115 2190
7117 2573
3088 1889
9377 503
784 6517
5016 4857
6264 2044
1659 9593
5055 3100
4311 5102
1687 2627
5861 2716
2381 3208
5661 2849
3679 9972
1526 9904
2863 4896
7073 3708
3925 3664
5703 4455
8969 433
1632 4299
4321 2735
5270 889
8295 5274
6106 3216
703 3578
2277 2305
4248 913
5792 2017
48 4335
6152 2686
5917 2044
700 7141
9002 2081
5546 755
1422 376
906 2938
7123 4949
3192 6007
7046 9989
1991 3474
5754 2422
8708 5222
6002 1031
7977 9905
1151 7346
1651 1150
230 7735
8967 1553
2166 1643
1440 7218
7352 5216
8876 5310
4792 7591
743 2715
6195 6307
6808 1691
353 4048
5915 7378
3637 2708
4671 1803
6547 837
6881 2007
3858 459
3976 2664
6594 7623
7906 2318
5071 7139
7183 9151
166 8188
4157 1132
2503 8302
7156 2418
1804 3039
1107 1502
6089 3935
3929 4501
661 3566
3753 7091
7800 8175
664 3858
3717 1147
7609 4109
5834 8873
3067 2005
949 9500
9953 4804
5673 1661
8002 8944
2898 8140
9010 6514
1397 4945
6641 5224
636 3991
5090 7816
2161 3227
4031 5558
456 8577
731 5768
1 6457
1064 4616
9262 2912
2795 8553
4514 7081
9916 6061
2987 7789
2498 5382
5010 7585
2062 8236
177 263
2934 3487
7220 5736
1910 4158
3058 7665
6674 1127
877 2011
9615 9231
2088 7807
2098 3396
5242 1337
761 4529
9681 1820
3657 8962
2552 1479
3976 3769
8475 1927
1308 1296
666 829
7731 3088
3260 8625
5749 833
8102 2663
6150 6835
6365 2193
960 2701
4248 1749
9537 9379
1609 8064
2097 5997
7303 6326
8515 8222
2380 8019
2058 786
528 3445
6589 5835
3019 656
9795 1622
4775 9916
1122 3774
4460 6651
7029 6182
9772 4381
5662 210
8337 4817
6812 1478
7027 6381
7072 8084
1374 5551
8365 1824
9395 8901
4063 598
7230 2554
413 5407
4120 9698
8113 7183
4126 8856
2024 8578
6130 9269
5285 4409
2112 4404
7979 623
964 3140
3643 1841
4426 3678
3962 78
6262 791
8791 1147
1877 4232
1820 1082
1187 3372
114 6747
702 5274
2314 659
3339 5284
2185 3741
2376 559
1971 1567
9762 7316
7052 9518
1352 7302
7867 1156
8656 261
1071 5409
4136 7890
6055 9023
8575 7940
9229 955
4149 6986
7314 2993
1728 7938
9088 983
7296 5274
379 2189
2438 1125
4378 3602
9488 912
965 2283
9704 4421
527 8240
7631 4239
7030 151
644 8064
4745 2454
873 4656
7689 1155
8919 3175
9746 302
1488 1820
2204 6449
8070 5518
958 7974
9851 6883
2626 154
7064 3584
575 8656
738 7417
6066 5930
1193 8217
814 1892
9267 2372
7670 4033
3673 9514
3401 5562
1552 6895
1086 8851
8571 7417
5919 672
2671 2713
250 8617
5063 638
4581 2602
8281 3910
9123 6670
5784 3303
1541 5773
8635 3805
4434 9363
4815 372
1386 323
7768 9545
8071 7212
8686 8012
9414 7739
7397 1016
2484 3760
9789 6135
8012 8485
8764 8095
2336 7693
8344 5265
358 5834
8570 4980
9797 7122
3999 8973
527 2306
2401 3939
8850 9891
8757 4464
2618 3836
7158 6762
9849 4984
5698 7666
1818 8874
2675 1164
3714 398
2865 2017
3416 2434
4038 2577
7446 8901
8483 7277
368 6158
6929 9365
3749 8560
1962 5437
2196 557
2600 37
1969 536
78 8792
5208 496
2486 501
5904 6730
1707 2973
8964 1165
297 2860
1246 1300
2817 3212
8085 8991
6513 7462
505 5436
4307 3866
4139 1957
5285 8818
1411 905
5817 7345
6717 2543
1582 4769
1731 1943
4526 6286
5201 4548
745 9981
2468 7000
5459 6210
8037 6542
8297 7760
7029 1582
4634 3121
9929 3484
8755 664
2615 8194
8635 1589
7601 8367
865 6058
8659 4607
2115 8844
4120 3726
3536 444
1489 9224
2160 4438
8376 9778
8642 2137
338 302
7382 840
4835 3050
236 1025
2967 6747
1549 2364
2910 8249
6617 1574
8791 1066
2560 9039
4272 7843
6037 5872
8861 1740
5967 337
3815 1060
354 4826
7623 3748
9822 8936
2387 2728
4471 3235
8952 5292
8709 942
1481 2164
8172 878
8871 3743
6782 6766
9698 4668
2064 5778
5311 9932
6602 6779
7322 5210
5459 715
7949 1849
2060 2521
9905 1518
4348 7447
4469 2030
4332 7330
413 1480
5780 5882
5820 8374
4070 5122
5462 4431
9112 2026
671 5889
8312 9212
7352 8446
2427 9812
555 3381
4263 5443
196 8114
275 4469
819 6776
8235 8577
7824 2798
6135 9153
1198 5703
6542 1476
419 1527
9431 8832
2182 6082
945 7979
8922 6679
1716 6172
6554 4894
7735 8589
8165 8142
803 229
1181 9890
7528 4931
90 6877
7919 77
8436 859
3616 4698
1681 41
1716 5532
7260 7528
7181 6002
8071 5518
2997 44
2 718
1076 6049
5900 8617
7542 7470
1673 6741
3229 912
148 8637
9027 8692
1143 5673
5842 9628
154 991
6647 2117
2424 2250
5300 9399
9096 4730
6854 1260
4058 6796
8486 6181
7584 1788
4708 2361
7519 4312
8112 9776
9190 9926
3803 7391
7567 9129
3838 2612
2227 2320
5816 8164
4371 1120
3646 5795
84 1011
1390 7540
9291 4080
6998 546
121 1293
4035 6191
4120 7363
8859 746
6663 7825
3038 6454
3363 2452
8283 5960
855 3365
5567 8369
9972 8322
6164 8782
7380 3522
5623 6188
3676 9603
6474 7744
6976 3239
6476 4293
1516 1199
6677 4551
8576 5269
2278 5744
8827 5712
8224 9025
12 1460
5925 2548
9668 3049
2396 6223
1120 45
552 2396
2598 940
2379 9574
2637 5119
3895 966
4386 9970
3910 3423
6424 427
746 3015
8896 1224
5543 4359
9162 2567
1664 2869
2379 3340
9183 7488
6927 831
1929 3707
544 6212
241 4878
4311 4127
8444 1785
7587 71
198 1098
8264 8394
6882 1137
5914 8449
4951 8786
4330 2342
8473 2155
8896 5011
1734 2375
9754 285
8115 8322
7715 9617
3957 5694
1303 7150
7652 8517
7846 9507
3548 1744
7640 8426
5575 2567
9632 3557
1224 2330
2564 6135
4025 48
1883 2727
8087 493
7272 8049
3292 1257
646 3133
4717 5567
8405 5236
3797 9747
6532 1296
9266 2104
9119 3939
3695 5953
1675 4331
274 2054
3631 3461
742 9610
4181 3391
9116 7418
3714 2386
7021 952
8818 7584
4851 2313
1432 6362
1145 1947
7957 7301
3792 2124
3829 3582
4563 1223
1074 9100
2541 3760
6628 757
6426 3490
3270 5523
8523 4694
1567 8488
3614 9895
3583 6032
1214 1412
4456 5431
7638 6709
2768 4395
860 4946
1156 7394
715 8960
9806 9502
6833 6446
1674 4160
6395 6687
1270 2652
5614 8136
1576 6780
6600 3997
6468 5927
1797 3687
878 9811
438 5209
4557 5528
2575 6291
5969 5111
6672 7638
647 2188
4790 3385
4378 3967
2419 4859
3243 4385
6988 2298
6580 3541
5953 1523
874 4188
4658 395
4050 8263
3152 2046
1557 9734
5569 2310
2470 3398
5096 2543
388 5419
3653 9352
6907 2938
8249 3244
7824 3642
3148 466
3836 5819
5330 3089
7608 9352
684 1528
9419 6474
1371 1406
6640 1053
3146 661
3115 3078
8941 5156
6621 5237
724 7861
6918 2455
5780 4971
2123 1120
6360 201
8232 3751
8676 7199
2119 498
827 1350
2386 2596
9905 2591
85 6836
371 502
5848 7439
9301 8237
2651 993
3372 5622
5859 9136
7198 5520
9588 3594
2791 6727
1839 5472
5310 1941
31 1714
2711 93
446 6173
7241 4490
6813 515
3442 2499
7940 3930
4794 7969
886 9815
2870 1924
8969 3756
2830 8259
3844 8384
5905 611
3290 510
2071 8827
6071 1473
184 9493
1048 9214
3851 2182
6383 8834
8625 3282
9383 4158
7715 5658
3909 7680
7784 951
6976 4020
3292 8908
8691 3354
1998 87
5008 8090
9481 3416
5143 7717
998 2789
967 5118
9423 7565
8532 3546
2246 8219
9498 2195
9575 9422
8945 1107
3980 6695
1634 1791
4576 5538
1496 2449
2966 7657
7674 4363
7275 4693
2328 9
5737 9190
2468 9750
7325 7653
4868 2482
1771 6952
3093 9042
8336 806
626 1624
3993 1884
4020 4165
194 6878
876 156
9073 7330
2992 2409
9941 3994
9042 8450
5049 9408
4375 3133
2909 7351
7174 9554
4727 5087
5999 9858
3941 3706
991 5144
2118 5213
5169 9630
106 1241
1782 4276
2344 1850
921 9469
7343 5007
9644 8154
5182 5659
999 2219
3511 1147
6339 914
5937 6970
7841 6731
14 1601
8416 9818
3789 6883
5439 835
721 4824
3807 7615
8705 7160
5213 2477
2401 6539
367 8616
5216 6127
445 3656
4611 1417
3426 9867
4131 3983
6498 1445
7699 1397
9758 9878
4501 5830
678 8427
4893 6182
9487 7367
1381 9014
3413 836
3411 2520
386 8804
7064 499
1840 1021
1978 5657
9676 3652
5332 7943
3643 2713
6284 4044
8209 100
2582 5262
527 6142
2999 8986
461 196
1965 6362
8553 2567
8957 4764
5214 9303
8236 9968
2569 2049
2290 9250
5432 9430
1164 4937
6436 6174
7041 6687
9904 1341
9192 8819
2882 5717
3560 4795
1314 7148
9343 9661
7456 8160
5767 4672
539 8472
6310 1694
3807 4172
1445 1629
8447 3832
3315 9791
8596 1629
3226 518
2852 5000
3859 9948
9430 3047
2614 1986
8501 1513
773 871
5203 9494
5321 4300
2224 7983
7228 4341
7755 1751
4553 8418
6648 9570
9073 1599
4867 1340
1776 153
2468 254
3407 5298
2884 957
1579 5127
350 2659
9109 7920
3433 3681
5547 2519
5238 53
4232 8077
2101 3305
8712 4825
7068 5436
1326 9890
5482 8966
1609 2559
6041 5126
3028 5789
6979 9197
7693 2834
903 3264
1737 239
9275 1994
3590 8859
1956 5745
8928 9037
6628 2586
4696 1178
6915 7999
5794 1232
4465 624
5326 1522
6571 2648
746 5541
940 1681
806 4378
534 9322
7176 5998
881 7096
3040 5198
7699 5595
2990 7630
1072 9203
2499 156
804 4370
8262 8161
2399 9364
280 7016
3393 4700
1882 2946
3318 4784
1053 1385
2563 1832
6777 7635
2962 9651
6707 1305
4122 7292
3689 233
1731 763
1328 2328
5224 510
7344 7484
9821 9625
269 5834
3251 3707
122 7899
8154 1811
9481 597
2183 3411
9190 791
5718 6180
9381 6532
3058 7994
3897 1955
386 3498
2375 3382
6838 7385
2793 9211
9363 8311
7 5424
5834 2636
7523 6266
512 7457
6356 6647
1994 1682
4198 2610
375 8434
9536 887
978 3712
1014 2183
920 6105
7743 1358
1415 4813
1658 7620
3608 6486
7261 49
7166 2231
7902 2645
2015 8882
6693 982
2003 3117
8881 4507
4714 2325
7626 1193
7299 995
9112 6268
7163 4206
1522 9416
434 386
1049 8496
7236 7679
5174 167
6214 7621
1745 5909
4240 175
3652 1244
1322 6429
1455 1100
9242 694
7789 4931
5005 2477
4023 1065
6739 7588
9783 8604
4480 2238
1984 8055
4880 6810
8876 7512
6587 6173
8534 3666
858 9582
7913 6352
4777 4712
1896 4043
1021 3308
6144 1933
23 3029
9947 2167
1065 5728
2278 9553
1545 4587
5 5088
3268 8493
8246 13
997 8567
4419 6723
8262 7818
6604 8649
9061 536
6852 5425
8139 2399
8027 2687
8458 1908
3916 6670
2581 2268
743 784
4260 4961
6258 6053
1847 4274
1308 2414
635 1564
2850 5698
2171 4216
533 5600
2745 853
4732 1606
6941 6056
7990 1729
5517 608
1330 406
9214 3311
595 3169
5433 1430
7486 4444
1090 2624
838 7346
3029 2467
106 1637
1026 3346
2493 7021
7339 7622
5078 3217
4794 3133
1497 4251
1049 9475
9350 2407
2684 9121
2000 8236
9746 7076
497 2494
796 8944
1596 2563
3116 6356
5299 2629
2594 6703
4490 5079
3459 6115
267 4092
2860 1113
1532 3332
7845 9397
9038 4280
1273 4123
8807 4328
6516 2130
467 1171
718 5561
6486 935
3240 7159
5909 2730
1828 4407
7749 9832
1898 2148
9972 2333
552 1633
7527 1637
570 9036
1523 8066
3210 5204
1313 7679
8010 3529
2636 179
7167 1731
5932 7687
3152 6581
9480 4731
1312 4579
7175 6454
856 386
4999 6477
8313 7103
2594 4182
1295 3138
3534 7309
8826 3412
7332 2407
2826 9824
2308 7957
248 9174
1270 3163
7245 2405
3620 2930
6349 3962
9654 2474
404 7732
3454 404
7604 250
1829 9407
1197 2527
9093 7057
1167 6724
2826 9449
8044 111
8691 7218
2785 1003
1356 2827
1782 192
7073 357
7732 1764
1292 540
5255 2706
1807 122
6452 4570
9545 2568
2700 265
594 8326
9841 5579
8505 5933
1545 6798
9985 6643
9697 4489
8727 30
5972 1581
5879 4317
8348 4122
4639 8420
5832 1605
9364 9750
2831 2184
3732 9576
6259 1034
492 6403
9945 9041
1531 266
9689 70
1062 6413
3089 2136
9597 478
895 5988
1678 2546
6574 1331
1465 1769
6128 8500
2724 5538
6813 443
9903 3160
811 7290
2379 5314
3135 8639
8278 9818
707 3422
4090 2683
9928 609
4936 9457
5038 8909
1710 9820
9041 3383
9984 3061
3078 1847
6854 3540
1191 2555
4483 9472
4395 2031
7142 2281
9322 60
4340 3235
1935 6430
1301 8644
7135 3499
2158 5680
1529 6385
512 9650
6174 7199
398 958
8259 6806
2324 8549
2549 9729
342 4248
7996 7107
5735 7105
6675 4224
8988 2590
1959 6447
8832 7919
8189 8558
665 7443
905 535
986 1517
2189 3858
2122 5405
655 5690
9765 4092
1262 1796
642 1112
8934 6605
7477 4481
7153 7908
6246 2307
7393 6904
4577 1173
7595 6003
767 5393
5574 5719
1637 9174
6789 6904
5484 9770
1121 3050
5409 2435
3195 6588
1150 3272
240 8998
7288 1683
6509 3119
3818 9162
3333 1778
7570 7806
8113 209
4762 3604
8119 682
5498 2338
3471 1273
5564 2540
7922 6751
2784 4576
771 7794
7921 1823
4050 2229
152 3645
8751 6025
1392 7818
9516 2819
6905 418
6294 9712
9697 2962
8533 6407
9504 5004
9522 4366
9426 1789
2265 3504
9322 5789
1903 1565
693 5750
2677 5858
1117 7880
3374 6954
2336 5293
4781 3397
7280 1417
9715 8281
764 9476
8680 2726
7886 7131
4951 7742
2278 6243
8927 2261
6983 4544
1062 981
1185 853
305 7221
9135 2332
1970 1467
4770 6489
913 9119
3454 3642
1439 1075
7906 9810
7831 7248
7710 7414
1861 9890
4080 1447
5627 3590
6096 6353
8209 8818
2029 6356
1293 6967
2151 6449
6084 6515
3262 8663
1568 7210
5786 6974
1091 182
4749 7443
2666 892
4407 6054
9541 8992
4008 6369
262 3068
7051 9930
7096 9245
609 1066
1874 6287
4779 1183
3820 3211
6060 1423
7809 7133
238 4493
6550 154
2436 9281
1738 3426
705 4755
2142 7394
7687 9561
7063 2350
5841 5490
2498 6125
6293 6145
5687 5221
8932 8989
7073 665
3397 5032
8109 9968
5601 3551
9489 4168
255 6274
3775 4090
467 3957
6537 9904
7187 1926
3207 3636
1291 7520
2984 251
3825 3407
6549 6050
6587 2756
3228 3847
7487 6571
2811 1804
7963 236
2603 631
9479 2799
2144 3741
2087 68
622 9953
9333 7793
7742 2439
7823 941
9841 4878
1005 9789
7380 9901
3622 7948
692 189
1459 6545
2436 2039
1780 9372
1309 9344
3362 8352
2086 3778
2324 999
8852 3437
4630 5538
9891 7582
7159 3249
918 4654
3777 6275
1275 5678
7679 7693
4434 4049
3194 5040
2144 1692
7108 4518
3119 2569
8841 6477
4552 6146
770 8936
1172 5948
28 6961
7983 8433
2153 6836
7854 8387
2838 2808
5971 1134
7532 4927
2142 6717
4250 7265
8966 8480
4067 739
1032 6732
4836 9677
9599 6100
5386 2029
8549 4471
4465 3446
6057 2137
2959 6669
7778 118
2562 3382
3843 1796
2023 8553
831 9177
941 779
5646 1741
8377 4603
1841 2417
3948 4506
9155 9440
5890 4398
5744 8452
8860 4265
4490 7453
8096 8149
8841 8046
9310 2643
7443 3736
5591 677
3006 1035
490 3800
8497 4122
5823 8646
5057 5438
6295 5402
859 5278
5907 9973
8540 1502
2276 1041
6601 8149
6147 3717
5757 4531
5891 7592
1197 9107
2740 3209
2194 9901
4873 6894
2311 6047
7787 6907
9521 237
7375 4694
8687 6039
9125 345
8210 1386
1299 7751
7583 1306
8530 9011
5955 4398
1560 349
6935 7836
6341 4030
5716 4774
2513 214
5447 1253
8486 2164
5096 3718
2970 4294
2328 4690
9297 4145
5354 1106
6192 9027
36 82
2260 1175
6197 1094
3092 5386
1129 5931
9332 6987
9147 1583
2748 7336
1978 6787
7737 5927
7135 9711
2546 4001
574 7511
8541 8742
6059 5053
1971 1853
1199 8184
9953 1627
5963 8835
2641 5062
7660 9944
7480 202
1856 5951
7969 1420
5080 3009
5418 3981
7550 6210
2014 5969
9624 1327
1811 240
206 7316
1796 5565
8489 4321
1521 7749
4060 2158
2646 6858
7816 9740
9385 529
1466 7662
8712 5209
872 8056
9779 8078
3740 903
9269 3004
319 9041
4121 6247
394 3374
3579 7386
8425 1591
8012 2894
4785 9134
3690 606
7524 5726
2016 3562
6626 8964
4729 408
4578 3375
6363 8705
9665 8404
8657 1963
3675 8565
8857 338
4088 3939
7216 6893
7704 2561
2235 7455
6226 3691
1111 1258
4584 1623
2403 6395
2544 730
7756 7234
1599 9262
6313 624
2007 259
969 5894
2579 6660
6698 363
1471 3883
747 1550
429 6952
6436 7789
1958 2221
2228 8886
6974 4461
411 9324
4379 9063
5977 2093
1975 1022
6375 1793
2307 4939
1749 4660
7327 629
6691 136
8216 5007
2500 5637
2577 1186
1856 1763
2117 8045
2505 8682
76 9051
1504 2455
6620 4228
4025 977
385 7270
6124 7213
6528 7845
221 6015
5624 1088
718 2210
4859 3270
1716 9626
300 3305
8103 439
7864 8642
2158 957
3914 6278
1211 9090
4778 647
1282 7768
1686 9934
7968 2316
2724 1303
2057 2829
7046 3661
722 6177
9119 9865
6849 8036
1621 1893
3154 1923
8615 8421
619 8376
385 344
658 1271
2622 7979
5277 8696
2605 1486
4379 5109
7207 7340
449 7559
1344 8357
4247 2060
812 1838
5572 8813
1972 6076
5047 5821
2041 7021
3768 8723
1560 3224
6575 8076
4943 4501
3827 2346
1743 479
8965 8498
4546 2137
3965 6085
2911 4655
4437 4157
2475 1471
4774 6715
6962 1064
9120 2174
7911 9938
6702 7670
6920 2974
5752 9017
4790 959
5658 5190
6179 6008
9862 7961
5869 8808
8694 1103
778 884
7268 1034
436 740
557 7159
8535 4305
4611 5293
408 7900
963 3241
5049 8195
7815 7880
4538 2256
1484 8820
9330 7714
6342 9411
5023 2928
9938 5964
1386 1451
8780 8924
4814 243
2707 680
4346 397
8058 3764
1349 5796
7312 5811
242 798
754 9952
9285 2992
2928 9948
2020 5780
4973 5800
7953 8697
3914 838
5815 5772
7846 3867
1218 278
5759 4632
1156 3414
8828 9369
2502 5441
8494 6413
364 471
9859 6488
7916 1927
1901 4869
9712 9238
691 512
7786 5548
4359 2083
2552 6575
4472 639
1816 3604
7928 9789
8669 3507
1889 5397
9426 8347
931 5663
1758 2982
8785 249
345 7518
8461 537
8047 2128
1265 9507
2515 7072
5919 108
7493 9901
3195 9983
7031 7142
9416 6512
2924 9677
5040 6640
8705 187
3033 2065
9873 180
1252 5499
276 5149
183 9022
7304 4571
1757 6408
83 1021
5228 5977
5639 7869
9688 1381
5543 1971
6870 281
5673 395
1683 3858
7949 6328
9654 3707
4797 6152
3812 2470
4132 7130
2787 9213
2404 7230
8368 9112
4995 7612
8133 3105
4934 7607
4149 1351
2593 8867
3386 7232
7773 5749
8049 4851
8555 3530
2100 9333
9561 6603
4153 129
434 2703
9513 3421
2906 4081
7363 7019
2779 1220
4161 30
5193 5092
684 9614
6141 5535
6812 317
256 9139
7666 7850
7414 6554
6426 38
3533 5012
4491 1718
7654 8035
4513 3544
8547 2413
604 8265
7218 381
7594 7638
9177 4075
7923 4625
6242 9373
5908 375
8793 6206
2430 8128
5204 6015
2367 2039
1794 5403
2642 1979
3591 6223
9459 9364
935 57
7253 6954
3120 8864
9159 242
3214 1620
100 9114
5673 1944
1418 3368
929 4205
2606 4157
6397 7761
6109 3904
8528 7880
2022 6089
4301 7289
6935 250
9085 5389
4837 1461
1855 1827
3264 3434
2111 5336
9813 4543
1001 1733
6070 374
7151 937
2984 1449
954 1800
8587 2089
5326 3092
8879 6263
4097 3724
8741 6226
9422 2866
9252 1667
4740 1361
1837 8997
7012 1678
9728 8346
9819 4158
3504 2057
7052 1977
6725 8716
2627 2301
1649 2633
1189 4998
9526 3455
1083 6637
8661 9668
241 4719
8153 7884
7962 2015
4950 8301
2006 9342
2572 4993
5207 4330
2113 2507
3168 1749
9821 8941
3423 5895
4663 7770
2524 5334
1409 7351
4386 9606
6927 5304
15 2028
334 232
7655 6967
195 7832
5821 8641
6673 9388
2340 4289
3967 5395
9906 9685
8329 1078
4678 6143
5141 8242
4844 4685
6505 6377
1391 366
220 8517
4623 8113
7418 2031
3747 4624
6076 9199
6288 4893
1495 3477
9114 236
3123 6744
6314 1298
6671 5581
7682 7996
884 3754
6605 1410
5159 459
6042 9117
7202 1508
6282 5143
3861 872
9959 4786
3081 9130
6952 9501
5494 5171
1682 834
2854 3235
1618 2643
2105 4411
3048 8870
5066 826
902 4414
3313 8262
5002 220
2987 7133
5687 1365
4183 317
5499 9718
3682 6705
460 4406
3798 1117
8292 6139
110 1132
4143 5856
1949 5495
4115 341
8384 1097
2704 8679
1441 7185
4263 9426
1901 600
9871 7268
4040 2660
8902 3075
4032 8891
6869 7634
6063 5004
9911 5904
3829 4587
7932 3618
9125 8267
6313 6450
7982 4097
9922 2503
6686 6134
2538 487
7490 5005
8810 2186
3617 7238
1424 3746
9497 5010
6410 2216
313 952
5764 6808
2162 103
3359 6383
2152 3661
2258 2628
7453 4472
9572 1957
5183 2747
635 8548
6977 259
1583 6002
4232 3818
883 6473
1895 2268
8421 32
7405 7352
4403 5227
6940 2074
3744 690
4078 8582
9431 1235
2371 3687
8848 9194
6974 6169
6545 2912
2337 9699
7447 1905
4502 9210
581 4002
5024 4690
2411 739
8257 1334
9867 1698
4749 4474
1512 6384
4622 1438
8032 9864
1994 9398
6812 1373
2162 1512
7589 5347
1996 3477
297 3633
1411 3420
382 469
1902 2492
5302 7304
2158 8760
9988 916
8620 1936
4798 1091
8034 4909
6516 1962
328 6077
5472 38
6451 5392
4878 4549
825 7937
4206 5465
9240 729
8407 9704
1991 2705
5886 8775
8461 9767
855 2809
2497 8676
8076 1282
4161 2107
5436 6209
2295 3315
3173 8973
73 5928
2245 607
2912 703
2349 7761
3403 6921
3799 9701
1205 251
362 9209
9348 7691
9580 1465
3380 6797
5991 8438
5683 415
2527 8214
4798 1361
3971 5275
2700 7210
7313 1608
1561 55
5311 1426
6614 980
3960 8147
7439 9632
2339 1509
5373 140
4298 2365
877 757
601 118
880 8722
390 2208
6725 7279
1025 4887
228 364
1499 1497
9292 2160
3852 675
9952 3394
2847 9659
5037 8777
65 6355
1615 690
9706 6220
7652 2898
3066 7194
5329 4652
1576 3191
643 6021
4903 5994
2457 4183
7243 3913
2305 5539
3371 268
1792 1690
2678 5780
4790 9662
6426 508
9825 9956
3219 5135
1745 685
3026 8314
8508 4565
2430 2019
8338 427
3583 8395
2020 35
5240 7728
4320 1064
1140 2741
8880 3830
3925 4982
2244 454
4489 8503
749 6219
8814 3677
1484 8398
920 975
4426 6325
3088 2013
809 2921
2446 6898
8843 6951
4443 438
9970 1959
4608 5015
791 2044
3620 2666
6622 3371
6420 8188
6266 335
8723 7806
3341 972
8436 4912
5459 995
4709 3420
1040 3814
8751 2391
6759 6541
363 9236
3101 7639
5863 3482
2701 4532
4281 1158
6364 4051
7332 3492
3856 3592
6201 5946
8541 4001
8063 1477
4048 9448
3942 649
160 8539
7160 6307
1361 8075
9537 1009
9546 8802
1633 6148
1546 6536
2223 9716
6359 7719
4208 6117
8295 1550
5528 682
1986 4355
769 2567
5463 2989
3994 7803
9583 4880
9745 6157
9375 5098
3988 1269
1586 9566
3284 6031
6470 3727
4780 60
6245 4719
1441 1082
2727 8504
2010 8757
6102 5099
3857 7853
6114 2727
9098 8682
1638 5741
451 4461
7595 5426
2301 6297
5179 6404
7899 2226
2841 1584
7544 2533
3807 3283
830 6712
360 7487
4740 2147
1455 6113
344 319
4167 4673
8973 8478
7869 9146
8934 2588
1179 74
1316 996
3807 5372
3356 7142
9931 3252
2669 2711
7117 1226
3280 1881
2 268
1073 6989
599 7933
9581 1798
1696 178
9900 2080
4573 1006
8417 2449
9817 4332
6128 4430
4628 8717
6015 961
4308 1683
7792 4794
5160 1486
5406 1540
3293 2884
6614 810
8068 678
1097 6361
8068 3793
3647 6839
8956 4050
5069 3732
1564 9454
8393 896
1252 9969
1342 7181
908 5797
1580 8215
6134 421
2929 8417
4705 4578
766 3602
2080 5126
4595 4160
5483 3271
1309 5963
211 1662
9697 2205
2843 5433
5257 6081
9270 6078
4974 8146
7500 3249
9254 3797
7457 8440
1745 5785
1543 1629
9487 2285
66 1635
6116 4196
7276 8940
3934 661
1211 5114
518 6949
7376 9301
3189 5369
722 9117
1658 8438
1914 3201
1529 4828
8527 6607
6853 5763
9477 748
8689 708
1442 5686
7412 4939
1313 8792
4667 3532
5115 2494
7620 7588
1714 8522
8616 1072
9631 742
1847 1492
7583 3547
139 8757
9658 8337
8966 8247
8709 8456
845 2415
2072 647
2106 9248
1057 627
9372 4104
7690 9778
1266 7056
8009 7599
7288 5199
935 7729
5104 1281
772 920
612 7191
3145 9400
5131 6446
573 4473
2219 9572
1500 2237
2926 4984
1108 2676
7704 4370
7762 8061
3592 6067
1245 7006
445 1150
4321 7509
8395 5094
576 6224
6733 4202
6035 8986
5341 4111
9239 23
7330 2349
4022 8530
3850 3325
5058 7444
344 481
9530 6328
9679 1412
4774 8717
3120 2019
8693 4332
6096 5228
1690 794
8846 790
3522 336
4227 8306
6169 7833
6187 9537
3150 8252
9651 8758
3172 8939
8996 9981
7482 379
943 3195
3709 677
4137 600
6636 3100
4456 8363
1644 8544
7246 2116
5549 7346
8294 2176
1197 3833
8125 2392
6076 2484
820 9083
3008 9905
9155 5646
7018 6670
1743 2065
9832 5102
7807 3844
2716 3838
9899 3417
797 1048
7094 268
8508 6263
4222 3872
9754 3757
737 6331
9208 1890
6947 9877
7727 9054
9037 7181
2754 6776
1080 1981
9456 2943
9466 8399
7950 3386
3488 5392
2340 4155
733 7028
8007 3993
3330 7626
4568 1006
2639 6465
8170 7790
568 5563
553 9369
6187 5681
1290 4627
2593 4680
7261 1122
1012 5074
2570 2007
3696 9831
2299 7985
2604 1110
6102 1486
4347 983
6735 1556
7934 2067
571 3855
3324 5574
311 9803
6405 4707
2906 9269
7331 7976
5224 829
7058 4372
3257 2319
866 8359
2297 3090
2635 5385
4065 3119
5104 2030
7415 1814
54 4871
4929 1646
9799 5420
1423 812
3746 1977
9866 2103
8214 2999
6455 1993
4319 3725
1441 6520
5519 375
6790 9829
1777 5189
7920 5620
1914 9399
6136 9694
689 8007
7286 2308
3680 3927
8379 4356
6059 2142
3650 2417
1105 8653
1364 3278
9457 4726
9468 7467
47 1359
298 8995
2006 19
9068 837
1888 5034
6954 4610
9780 1531
1824 4870
1600 463
1265 8363
2215 9543
2186 7386
972 2688
1494 2083
2928 1430
1664 368
9785 4567
1245 5652
6323 3530
1963 201
619 9728
7829 4715
8298 729
3017 719
6526 4938
235 2265
2111 5454
7083 1004
2961 7866
148 4546
4517 2053
1575 8318
6405 9336
4280 6368
1520 1843
6438 5802
5570 3744
4017 9665
1000 6747
3479 1894
4371 3346
6576 9765
3899 8074
235 5149
6853 258
1768 3841
1192 8972
1959 3999
4524 2777
6257 3679
2644 5236
9846 2078
8846 8962
3606 5084
6441 8729
580 4482
1222 9454
6104 2232
9522 9763
1684 2358
7075 7553
6393 809
2016 7026
6490 7977
630 8083
257 1625
5768 3687
3217 1358
7191 7807
3053 867
3123 4441
2599 764
6736 3111
235 3610
9181 2578
684 6447
8225 4142
1359 8866
1542 5215
6359 405
4154 1756
8801 5749
7988 1332
9569 5554
7524 478
6108 112
1646 4117
8104 9836
6281 1940
8752 1043
6867 8270
1245 192
4007 8801
2370 1860
8113 2236
6438 7627
865 8078
3399 4796
7423 9233
5597 1697
8638 6024
4892 2953
8099 2148
3807 8682
7096 2413
1505 410
7596 9983
3821 5952
1070 8083
2426 7911
5562 944
3583 7267
9475 7409
2237 1782
3217 920
2748 245
6732 1267
4358 5495
2362 2623
1172 9406
3830 8778
8405 1865
4642 558
9782 2904
7934 1850
8431 1106
7049 6659
8330 372
566 7883
2489 3995
5539 1312
3384 164
5415 9113
6753 2577
9802 6557
2575 3695
8538 5828
501 1526
5067 5297
783 9185
526 7745
6281 7038
8453 557
3199 343
2133 6486
8005 9155
8349 2258
7384 2151
5702 4705
8228 7777
5116 1894
680 9430
5149 1666
3367 7018
4191 8131
3856 4208
9414 2253
1312 2803
2214 7351
9926 5701
9574 2442
9927 2021
8326 837
2772 950
7714 340
9465 1709
5720 7970
759 3003
7766 477
6484 4701
8359 2681
9089 3584
2576 2408
7852 7001
1797 2072
1159 7316
2930 9357
2233 554
1479 9985
5092 1961
1747 7785
9511 8191
2820 2122
3908 2534
2366 4220
1092 9671
7707 7805
1946 6968
2625 249
1365 8663
3386 521
2602 1180
6880 3081
7266 9754
2071 7870
3568 4631
8272 7656
7477 9773
4187 7541
6599 7423
2332 935
9568 8527
626 5446
5411 7439
9588 2200
2916 6631
8028 7120
9800 1175
6281 8309
1898 7821
5391 9589
6640 137
4098 1114
8077 511
307 5419
57 7725
1226 3670
7118 9374
9300 5549
3380 4894
8127 6926
863 2943
3956 8759
4119 3531
5092 4746
4137 7227
4983 1629
9196 8167
1744 9862
1622 8735
5461 8341
9184 5850
8941 7090
1783 3516
1403 2216
4501 2653
7546 9170
9168 1144
1497 3718
2304 9601
7450 3711
4823 6411
8182 2943
8108 1833
2835 1684
5720 5971
7720 3050
3637 4860
3855 866
1668 2065
3932 6482
3870 3620
7326 4220
4621 9050
932 5507
8620 3089
7666 8764
2092 5319
3348 9410
9464 6599
6402 2140
6347 5253
644 1522
6753 4636
7912 750
476 1029
6610 6304
5800 3051
8819 3445
2384 7677
4637 6264
1010 8355
6389 2313
7984 5397
9866 1070
3033 5817
1654 2871
2312 1115
4355 7126
1083 2945
8767 3039
278 4527
2947 6572
8281 6857
3552 8756
7680 9544
475 589
3865 9343
7211 7311
6299 4062
5376 7659
565 2422
9670 6060
5253 4062
4459 157
8394 5445
5949 7339
444 8809
247 9101
1290 535
2158 7073
3028 8676
1799 2776
6331 2348
5595 21
4741 3002
1309 3074
262 4471
3403 4436
9643 1637
5892 607
2440 7374
858 1037
405 2697
4071 2635
6788 238
8212 9701
4854 5065
4056 5747
3999 9860
9950 4483
5543 9872
122 3674
9538 676
4285 4037
2786 1818
3543 2629
5116 9093
605 3130
6265 8216
1003 8383
413 6163
9931 2950
6877 2975
5415 4885
6140 2877
5019 818
9303 1065
2527 9979
5027 9333
4547 4217
7587 6851
1627 5606
8606 8850
5870 2092
3119 8894
8650 6176
4255 4705
4634 3679
8417 5406
603 5271
4012 1360
8491 2457
9455 4478
258 6670
2575 1089
4902 4872
9780 489
9850 4778
6005 13
5814 778
9969 4226
5645 8310
5153 1839
5354 7589
8858 4094
9837 3376
854 2084
9925 3376
5029 2277
1614 890
4480 7250
5165 1976
7935 5220
4473 617
2395 5534
8701 9821
3110 3518
1643 4009
6394 5892
4227 5394
5952 6742
4356 5368
818 6947
9058 5328
2355 7062
377 3943
2253 1470
2561 6515
3450 9500
7250 524
9303 9020
7434 4860
4439 3736
4557 9426
4948 5849
3564 3885
7515 8095
4729 9879
40 5731
7498 8912
6127 8475
1356 4061
3854 9758
1721 8321
559 3289
3725 522
4706 897
5094 5919
8682 8889
1626 4873
2534 278
318 3167
6963 6097
1476 1398
6640 573
1492 5272
3875 2122
3150 9173
1994 8778
1918 5000
1861 818
3234 4636
4098 7779
6632 5262
6168 8953
2811 3124
7320 5635
3312 3886
544 196
4444 2412
2419 8729
3000 6097
5958 5117
2616 4134
7531 2010
4296 242
7251 9520
7832 8281
8352 330
7177 4002
7289 8175
9096 1117
1154 727
4315 7236
4571 6880
1738 4034
1159 5343
7552 3618
5568 3306
7633 5193
8840 821
5710 8278
2227 1099
8903 3801
8628 2640
3729 1026
8038 4005
8024 2715
3404 9484
4198 7721
3722 7532
6949 2606
325 2375
849 8915
1496 4042
9874 6597
7977 7236
9353 3885
7884 459
552 6004
6999 76
3463 1302
7237 929
5396 8711
4350 952
6778 3155
2742 8881
230 5866
6597 5208
1542 5309
9832 3412
9266 8450
8983 7327
1360 5150
5382 5080
8979 8323
4751 2501
8195 343
6543 6636
2499 6823
3488 2068
4975 4668
4744 2551
8292 1246
1408 8811
4613 502
567 3474
6762 3320
2344 590
6972 705
1481 7337
335 2189
5157 2756
8847 1436
3213 3086
2718 4469
2298 6584
1884 3932
7367 5510
5032 3105
9868 3272
5222 1673
8221 554
7106 3472
2229 6105
4372 8030
5773 6647
101 2122
706 8177
4816 6717
7334 8207
2156 5993
1477 1675
5241 393
9386 9622
3673 2730
3539 6567
3170 379
2915 9717
3297 5329
3094 840
3617 9614
682 3930
6476 6179
2029 7380
9073 8867
9057 1430
5174 2666
2631 1335
192 5117
2411 6558
1233 8340
8732 6256
8433 422
367 4763
9360 9475
7540 4114
2170 1256
7001 3306
4221 5503
2813 6868
295 8341
4136 6461
8228 7152
4889 210
3750 1408
5345 1192
213 2308
9902 7786
90 1681
9130 996
342 1727
7381 368
2136 2069
7280 8703
1887 9238
7660 1035
9037 4443
6690 4666
493 7347
8292 8069
5878 4184
995 5434
1375 2244
1795 1726
7398 4580
7820 9687
2316 6524
9187 9162
259 4475
744 1712
7979 2385
4849 6623
7721 4254
2599 2758
2169 2540
7630 1496
5638 607
1163 1629
4807 4380
66 3765
4252 8392
3422 6382
2377 770
436 7944
3458 4212
1146 967
3097 7942
179 5497
1715 5396
4414 2345
7249 7250
1377 499
9502 2220
7088 1928
8852 7410
2355 9172
4725 7396
2982 5359
1414 8298
3362 977
3294 2024
604 1066
3328 304
3132 4641
1028 4344
1985 2074
7981 1853
7220 7437
1351 40
1770 6149
4575 6960
9982 6646
9224 9184
1918 4099
8571 7099
3876 3183
3198 269
